[gd_resource type="SpatialMaterial" load_steps=2 format=2]

[ext_resource path="res://src/levels/1/pattern19.png" type="Texture" id=1]


[resource]
albedo_color = Color( 1, 0.815686, 0.8, 1 )
albedo_texture = ExtResource( 1 )
