[gd_resource type="ConvexPolygonShape" format=2]

[resource]
points = PoolVector3Array( -0.0955996, 0.35, -0.0780991, -0.1131, 0.09, -0.0780991, -0.0955996, 0.09, -0.0780991, -0.1131, 0.35, -0.0780991, -0.0780992, 0.35, -0.0780991, -0.0780992, 0.09, -0.0780991, -0.0780992, 0.09, -0.1131, -0.0780992, 0.35, -0.0955995, -0.0780992, 0.09, -0.0955995, -0.0780992, 0.35, -0.1131, -0.0780992, 0.35, -0.0780991, -0.0780992, 0.09, -0.0780991, 0.1131, 0.35, -0.0780991, 0.0955996, 0.09, -0.0780991, 0.1131, 0.09, -0.0780991, 0.0955996, 0.35, -0.0780991, 0.0780992, 0.09, -0.0780991, 0.0780992, 0.35, -0.0780991, 0.0780992, 0.09, 0.1131, -0.0780992, 0.09, 0.0955996, -0.0780992, 0.09, 0.1131, 0.0780992, 0.09, 0.0955996, -0.0780992, 0.09, 0.0780992, -0.0780992, 0.09, -0.0780991, -0.0780992, 0.09, -0.0955995, -0.0780992, 0.09, -0.0955995, 0.0780992, 0.09, 0.0955996, 0.0780992, 0.09, -0.0955995, 0.0780992, 0.09, -0.0955995, -0.0780992, 0.09, -0.1131, -0.0780992, 0.09, -0.0955995, 0.0780992, 0.09, -0.1131, 0.0780992, 0.09, -0.0955995, 0.0780992, 0.09, 0.0955996, 0.0780992, 0.09, 0.0780992, 0.0780992, 0.09, -0.0780991, 0.0955996, 0.09, 0.0780992, 0.0780992, 0.09, -0.0780991, 0.0780992, 0.09, 0.0780992, 0.0955996, 0.09, -0.0780991, 0.1131, 0.09, 0.0780992, 0.0955996, 0.09, -0.0780991, 0.0955996, 0.09, 0.0780992, 0.1131, 0.09, -0.0780991, -0.0955996, 0.09, -0.0780991, -0.0955996, 0.09, 0.0780992, -0.1131, 0.09, -0.0780991, -0.1131, 0.09, 0.0780992, 0.0780992, 0.35, -0.1131, 0.0780992, 0.09, -0.0955995, 0.0780992, 0.35, -0.0955995, 0.0780992, 0.09, -0.1131, 0.0780992, 0.09, -0.0780991, 0.0780992, 0.35, -0.0780991, -0.0780967, 0.43, 0.0780967, -0.0353066, 0.43, 0.0189132, -0.0780967, 0.43, -0.0780966, -0.0353066, 0.43, 0.0189132, -0.0780967, 0.43, 0.0780967, 0.0780966, 0.43, 0.0780967, -0.0353066, 0.43, 0.0189132, 0.0780966, 0.43, 0.0780967, -0.0183393, 0.43, 0.0189132, -0.0183393, 0.43, 0.0189132, 0.0780966, 0.43, 0.0780967, 0.0183392, 0.43, 0.0189132, -0.0183393, 0.43, 0.0189132, 0.0183392, 0.43, 0.0189132, -0.0183393, 0.43, -0.0189132, 0.0183392, 0.43, 0.0189132, 0.0353066, 0.43, 0.0189132, 0.0353066, 0.43, 0.0189132, 0.0780966, 0.43, 0.0780967, 0.0353066, 0.43, -0.0189132, -0.0353066, 0.43, -0.0189132, -0.0780967, 0.43, -0.0780966, -0.0353066, 0.43, 0.0189132, -0.0780967, 0.43, -0.0780966, -0.0353066, 0.43, -0.0189132, 0.0780966, 0.43, -0.0780966, 0.0780966, 0.43, -0.0780966, -0.0353066, 0.43, -0.0189132, -0.0183393, 0.43, -0.0189132, 0.0780966, 0.43, -0.0780966, 0.0353066, 0.43, -0.0189132, 0.0780966, 0.43, 0.0780967, 0.0780966, 0.43, -0.0780966, -0.0183393, 0.43, -0.0189132, 0.0183392, 0.43, -0.0189132, 0.0183392, 0.43, -0.0189132, 0.0183392, 0.43, -0.0189132, 0.0353066, 0.43, -0.0189132, 0.0780992, 0.35, 0.0955996, -0.0780992, 0.35, 0.1131, -0.0780992, 0.35, 0.0955996, 0.0780992, 0.35, 0.1131, -0.0780992, 0.35, 0.0955996, 0.0780992, 0.35, -0.0955995, 0.0780992, 0.35, 0.0955996, -0.0780992, 0.35, 0.0780992, 0.0780992, 0.35, -0.0955995, -0.0780992, 0.35, 0.0955996, -0.0780992, 0.35, -0.0780991, 0.0780992, 0.35, -0.0955995, -0.0780992, 0.35, 0.0780992, -0.0780992, 0.35, -0.0955995, 0.0780992, 0.35, -0.1131, -0.0780992, 0.35, -0.1131, 0.0780992, 0.35, 0.0955996, 0.0780992, 0.35, -0.0955995, 0.0780992, 0.35, -0.0780991, 0.0780992, 0.35, 0.0780992, 0.0955996, 0.35, -0.0780991, 0.0780992, 0.35, 0.0780992, 0.0780992, 0.35, -0.0780991, 0.0955996, 0.35, 0.0780992, 0.1131, 0.35, -0.0780991, 0.0955996, 0.35, 0.0780992, 0.0955996, 0.35, -0.0780991, 0.1131, 0.35, 0.0780992, -0.0955996, 0.35, 0.0780992, -0.0955996, 0.35, -0.0780991, -0.1131, 0.35, 0.0780992, -0.1131, 0.35, -0.0780991, -0.1196, 0.06, -0.1196, -0.1196, 0, 0.1196, -0.1196, 0.06, 0.1196, -0.1196, 0, -0.1196, 0.1196, 0, -0.1196, 0.1196, 0.06, 0.1196, 0.1196, 0, 0.1196, 0.1196, 0.06, -0.1196, -0.1196, 0.06, -0.1196, 0.1196, 0, -0.1196, -0.1196, 0, -0.1196, 0.1196, 0.06, -0.1196, 0.1196, 0.06, 0.1196, -0.1196, 0, 0.1196, 0.1196, 0, 0.1196, -0.1196, 0.06, 0.1196, -0.1131, 0.4, 0.1131, -0.1131, 0.35, 0.0780992, -0.1131, 0.09, 0.1131, -0.1131, 0.35, 0.0780992, -0.1131, 0.4, 0.1131, -0.1131, 0.4, -0.1131, -0.1131, 0.35, 0.0780992, -0.1131, 0.4, -0.1131, -0.1131, 0.35, -0.0780991, -0.1131, 0.09, -0.0780991, -0.1131, 0.09, -0.1131, -0.1131, 0.09, 0.0780992, -0.1131, 0.09, 0.1131, -0.1131, 0.35, 0.0780992, -0.1131, 0.4, -0.1131, -0.0780992, 0.09, -0.1131, -0.1131, 0.09, -0.1131, -0.0780992, 0.09, -0.1131, -0.1131, 0.4, -0.1131, -0.0780992, 0.35, -0.1131, 0.1131, 0.4, -0.1131, -0.0780992, 0.35, -0.1131, -0.1131, 0.4, -0.1131, 0.1131, 0.4, -0.1131, 0.0780992, 0.35, -0.1131, -0.0780992, 0.35, -0.1131, 0.1131, 0.09, -0.1131, 0.0780992, 0.35, -0.1131, 0.1131, 0.4, -0.1131, 0.0780992, 0.35, -0.1131, 0.1131, 0.09, -0.1131, 0.0780992, 0.09, -0.1131, -0.0780992, 0.09, 0.0955996, -0.0780992, 0.35, 0.1131, -0.0780992, 0.09, 0.1131, -0.0780992, 0.35, 0.0955996, -0.0780992, 0.09, 0.0780992, -0.0780992, 0.35, 0.0955996, -0.0780992, 0.09, 0.0780992, -0.0780992, 0.35, 0.0780992, -0.0955996, 0.35, 0.0780992, -0.0780992, 0.09, 0.0780992, -0.0955996, 0.09, 0.0780992, -0.0780992, 0.35, 0.0780992, -0.1131, 0.35, 0.0780992, -0.1131, 0.09, 0.0780992, 0.0780992, 0.35, 0.0955996, 0.0780992, 0.09, 0.1131, 0.0780992, 0.35, 0.1131, 0.0780992, 0.09, 0.0955996, 0.0780992, 0.35, 0.0780992, 0.0780992, 0.09, 0.0955996, 0.0780992, 0.35, 0.0955996, 0.0780992, 0.35, 0.0780992, 0.0780992, 0.09, 0.0780992, 0.0955996, 0.35, 0.0780992, 0.1131, 0.09, 0.0780992, 0.0955996, 0.09, 0.0780992, 0.1131, 0.35, 0.0780992, 0.0780992, 0.35, 0.0780992, 0.0780992, 0.09, 0.0780992, 0.1131, 0.09, 0.1131, -0.1196, 0.06, 0.1196, 0.1196, 0.06, 0.1196, -0.1196, 0.06, 0.1196, 0.1131, 0.09, 0.1131, 0.0780992, 0.09, 0.1131, 0.0780992, 0.09, 0.1131, -0.1131, 0.09, 0.1131, -0.1196, 0.06, 0.1196, -0.1131, 0.09, 0.1131, 0.0780992, 0.09, 0.1131, -0.0780992, 0.09, 0.1131, 0.1196, 0.06, -0.1196, 0.1131, 0.09, 0.1131, 0.1196, 0.06, 0.1196, 0.1131, 0.09, 0.1131, 0.1196, 0.06, -0.1196, 0.1131, 0.09, 0.0780992, 0.1131, 0.09, 0.0780992, 0.1196, 0.06, -0.1196, 0.1131, 0.09, -0.0780991, 0.1131, 0.09, -0.0780991, 0.1196, 0.06, -0.1196, 0.1131, 0.09, -0.1131, -0.1131, 0.09, -0.1131, 0.1196, 0.06, -0.1196, -0.1196, 0.06, -0.1196, 0.1196, 0.06, -0.1196, -0.1131, 0.09, -0.1131, 0.0780992, 0.09, -0.1131, 0.0780992, 0.09, -0.1131, -0.1131, 0.09, -0.1131, -0.0780992, 0.09, -0.1131, 0.1131, 0.09, -0.1131, 0.1196, 0.06, -0.1196, 0.0780992, 0.09, -0.1131, -0.1131, 0.09, 0.1131, -0.1196, 0.06, -0.1196, -0.1196, 0.06, 0.1196, -0.1196, 0.06, -0.1196, -0.1131, 0.09, 0.1131, -0.1131, 0.09, 0.0780992, -0.1196, 0.06, -0.1196, -0.1131, 0.09, 0.0780992, -0.1131, 0.09, -0.0780991, -0.1196, 0.06, -0.1196, -0.1131, 0.09, -0.0780991, -0.1131, 0.09, -0.1131, 0.0867741, 0.4, -0.0867741, 0.0780966, 0.43, 0.0780967, 0.0867741, 0.4, 0.0867741, 0.0780966, 0.43, 0.0780967, 0.0867741, 0.4, -0.0867741, 0.0780966, 0.43, -0.0780966, -0.0780967, 0.43, 0.0780967, -0.0867741, 0.4, -0.0867741, -0.0867741, 0.4, 0.0867741, -0.0867741, 0.4, -0.0867741, -0.0780967, 0.43, 0.0780967, -0.0780967, 0.43, -0.0780966, -0.0780967, 0.43, -0.0780966, 0.0867741, 0.4, -0.0867741, -0.0867741, 0.4, -0.0867741, 0.0867741, 0.4, -0.0867741, -0.0780967, 0.43, -0.0780966, 0.0780966, 0.43, -0.0780966, 0.0780966, 0.43, 0.0780967, -0.0867741, 0.4, 0.0867741, 0.0867741, 0.4, 0.0867741, -0.0867741, 0.4, 0.0867741, 0.0780966, 0.43, 0.0780967, -0.0780967, 0.43, 0.0780967, -0.1131, 0.4, 0.1131, -0.0867741, 0.4, 0.0867741, -0.1131, 0.4, -0.1131, -0.0867741, 0.4, 0.0867741, -0.1131, 0.4, 0.1131, 0.1131, 0.4, 0.1131, 0.0867741, 0.4, 0.0867741, 0.0867741, 0.4, 0.0867741, 0.1131, 0.4, 0.1131, 0.0867741, 0.4, -0.0867741, -0.0867741, 0.4, -0.0867741, -0.1131, 0.4, -0.1131, -0.0867741, 0.4, 0.0867741, -0.1131, 0.4, -0.1131, -0.0867741, 0.4, -0.0867741, 0.1131, 0.4, -0.1131, 0.1131, 0.4, -0.1131, -0.0867741, 0.4, -0.0867741, 0.0867741, 0.4, -0.0867741, 0.1131, 0.4, -0.1131, 0.0867741, 0.4, -0.0867741, 0.1131, 0.4, 0.1131, 0.1131, 0.09, 0.1131, 0.0780992, 0.35, 0.1131, 0.0780992, 0.09, 0.1131, 0.0780992, 0.35, 0.1131, 0.1131, 0.09, 0.1131, 0.1131, 0.4, 0.1131, -0.0780992, 0.35, 0.1131, -0.1131, 0.4, 0.1131, -0.0780992, 0.35, 0.1131, 0.1131, 0.4, 0.1131, -0.1131, 0.4, 0.1131, -0.0780992, 0.09, 0.1131, -0.0780992, 0.35, 0.1131, -0.0780992, 0.09, 0.1131, -0.1131, 0.4, 0.1131, -0.1131, 0.09, 0.1131, 0.1131, 0.09, -0.1131, 0.1131, 0.35, -0.0780991, 0.1131, 0.09, -0.0780991, 0.1131, 0.4, -0.1131, 0.1131, 0.35, 0.0780992, 0.1131, 0.4, 0.1131, 0.1131, 0.4, 0.1131, 0.1131, 0.09, 0.0780992, 0.1131, 0.35, 0.0780992, 0.1131, 0.09, 0.0780992, 0.1131, 0.4, 0.1131, 0.1131, 0.09, 0.1131, 0.0268229, 0.47918, 0.0189132, -0.0268229, 0.47918, -0.0189132, -0.0268229, 0.47918, 0.0189132, 0.0268229, 0.47918, -0.0189132, -0.0353066, 0.470697, -0.0189132, -0.0183393, 0.43, -0.0189132, -0.0353066, 0.43, -0.0189132, -0.0183393, 0.43, -0.0189132, -0.0353066, 0.470697, -0.0189132, -0.0183393, 0.462213, -0.0189132, 0.0183392, 0.462213, -0.0189132, 0.0353066, 0.470697, -0.0189132, 0.0353066, 0.43, -0.0189132, 0.0183392, 0.462213, -0.0189132, 0.0353066, 0.470697, -0.0189132, 0.0183392, 0.462213, -0.0189132, 0.0353066, 0.43, -0.0189132, 0.0183392, 0.43, -0.0189132, -0.0268229, 0.47918, -0.0189132, 0.0353066, 0.470697, -0.0189132, -0.0268229, 0.47918, -0.0189132, 0.0268229, 0.47918, -0.0189132, -0.0353066, 0.470697, -0.0189132, -0.0353066, 0.43, 0.0189132, -0.0353066, 0.470697, 0.0189132, -0.0353066, 0.43, 0.0189132, -0.0353066, 0.470697, -0.0189132, -0.0353066, 0.43, -0.0189132, 0.0353066, 0.470697, 0.0189132, 0.0183392, 0.43, 0.0189132, 0.0353066, 0.43, 0.0189132, 0.0183392, 0.43, 0.0189132, 0.0353066, 0.470697, 0.0189132, 0.0183392, 0.462213, 0.0189132, -0.0183393, 0.462213, 0.0189132, -0.0353066, 0.470697, 0.0189132, -0.0353066, 0.43, 0.0189132, -0.0183393, 0.462213, 0.0189132, -0.0353066, 0.470697, 0.0189132, -0.0183393, 0.462213, 0.0189132, -0.0353066, 0.43, 0.0189132, -0.0183393, 0.43, 0.0189132, -0.0353066, 0.470697, 0.0189132, 0.0353066, 0.470697, 0.0189132, 0.0268229, 0.47918, 0.0189132, 0.0268229, 0.47918, 0.0189132, -0.0268229, 0.47918, 0.0189132, 0.0353066, 0.43, -0.0189132, 0.0353066, 0.470697, 0.0189132, 0.0353066, 0.43, 0.0189132, 0.0353066, 0.470697, 0.0189132, 0.0353066, 0.43, -0.0189132, 0.0353066, 0.470697, -0.0189132, 0.0183392, 0.462213, -0.0189132, 0.0183392, 0.43, 0.0189132, 0.0183392, 0.462213, 0.0189132, 0.0183392, 0.43, -0.0189132, 0.0183392, 0.462213, -0.0189132, -0.0183393, 0.462213, 0.0189132, -0.0183393, 0.462213, -0.0189132, 0.0183392, 0.462213, 0.0189132, -0.0183393, 0.43, -0.0189132, -0.0183393, 0.462213, 0.0189132, -0.0183393, 0.43, 0.0189132, -0.0183393, 0.462213, -0.0189132, 0.0353066, 0.470697, 0.0189132, 0.0268229, 0.47918, -0.0189132, 0.0268229, 0.47918, 0.0189132, 0.0353066, 0.470697, -0.0189132, -0.0268229, 0.47918, -0.0189132, -0.0353066, 0.470697, 0.0189132, -0.0268229, 0.47918, 0.0189132, -0.0353066, 0.470697, 0.0189132, -0.0268229, 0.47918, -0.0189132, -0.0353066, 0.470697, -0.0189132, 0.0780992, 0.35, 0.0955996, -0.0780992, 0.09, 0.0955996, 0.0780992, 0.09, 0.0955996, -0.0780992, 0.09, 0.0955996, 0.0780992, 0.35, 0.0955996, -0.0780992, 0.35, 0.0955996, -0.0955996, 0.35, -0.0780991, -0.0955996, 0.09, 0.0780992, -0.0955996, 0.35, 0.0780992, -0.0955996, 0.09, -0.0780991, 0.0955996, 0.09, -0.0780991, 0.0955996, 0.35, 0.0780992, 0.0955996, 0.09, 0.0780992, 0.0955996, 0.35, -0.0780991, -0.0780992, 0.09, -0.0955995, 0.0780992, 0.35, -0.0955995, 0.0780992, 0.09, -0.0955995, -0.0780992, 0.35, -0.0955995 )
