[gd_resource type="ArrayMesh" load_steps=5 format=2]

[sub_resource type="Shader" id=1]
resource_name = "Shader Nodetree"
code = "shader_type spatial;
render_mode blend_mix, depth_draw_always, cull_back, diffuse_burley, specular_schlick_ggx;



void node_bsdf_principled(vec4 color, float subsurface, vec4 subsurface_color,
        float metallic, float specular, float roughness, float clearcoat,
        float clearcoat_roughness, float anisotropy, float transmission,
        float IOR, out vec3 albedo, out float sss_strength_out,
        out float metallic_out, out float specular_out,
        out float roughness_out, out float clearcoat_out,
        out float clearcoat_gloss_out, out float anisotropy_out,
        out float transmission_out, out float ior) {
    metallic = clamp(metallic, 0.0, 1.0);
    transmission = clamp(transmission, 0.0, 1.0);

    subsurface = subsurface * (1.0 - metallic);

    albedo = mix(color.rgb, subsurface_color.rgb, subsurface);
    sss_strength_out = subsurface;
    metallic_out = metallic;
    specular_out = pow((IOR - 1.0)/(IOR + 1.0), 2)/0.08;
    roughness_out = roughness;
    clearcoat_out = clearcoat * (1.0 - transmission);
    clearcoat_gloss_out = 1.0 - clearcoat_roughness;
    anisotropy_out = clamp(anisotropy, 0.0, 1.0);
    transmission_out = (1.0 - transmission) * (1.0 - metallic);
    ior = IOR;
}


void node_emission(vec4 emission_color, float strength,
        out vec3 emission_out, out float alpha_out) {
    emission_out = emission_color.rgb * strength;
    alpha_out = emission_color.a;
}

void vertex () {
}

void fragment () {
	
	// node: 'Principled BSDF'
	// type: 'ShaderNodeBsdfPrincipled'
	// input sockets handling
	vec4 node0_in0_basecolor = vec4(0.4901960790157318, 0.7686274647712708,
		0.6941176652908325, 1.0);
	float node0_in1_subsurface = float(0.0);
	vec3 node0_in2_subsurfaceradius = vec3(1.0, 0.20000000298023224,
		0.10000000149011612);
	vec4 node0_in3_subsurfacecolor = vec4(0.800000011920929, 0.800000011920929,
		0.800000011920929, 1.0);
	float node0_in4_metallic = float(0.5);
	float node0_in5_specular = float(0.5);
	float node0_in6_speculartint = float(0.0);
	float node0_in7_roughness = float(1.0);
	float node0_in8_anisotropic = float(0.0);
	float node0_in9_anisotropicrotation = float(0.0);
	float node0_in10_sheen = float(0.0);
	float node0_in11_sheentint = float(0.5);
	float node0_in12_clearcoat = float(0.0);
	float node0_in13_clearcoatroughness = float(0.029999999329447746);
	float node0_in14_ior = float(1.4500000476837158);
	float node0_in15_transmission = float(0.0);
	float node0_in16_transmissionroughness = float(0.0);
	vec4 node0_in17_emission = vec4(0.0, 0.0, 0.0, 1.0);
	float node0_in18_alpha = float(1.0);
	vec3 node0_in19_normal = NORMAL;
	vec3 node0_in20_clearcoatnormal = vec3(0.0, 0.0, 0.0);
	vec3 node0_in21_tangent = TANGENT;
	// output sockets definitions
	vec3 node0_bsdf_out0_albedo;
	float node0_bsdf_out1_sss_strength;
	float node0_bsdf_out3_specular;
	float node0_bsdf_out2_metallic;
	float node0_bsdf_out4_roughness;
	float node0_bsdf_out5_clearcoat;
	float node0_bsdf_out6_clearcoat_gloss;
	float node0_bsdf_out7_anisotropy;
	float node0_bsdf_out8_transmission;
	float node0_bsdf_out9_ior;
	
	node_bsdf_principled(node0_in0_basecolor, node0_in1_subsurface,
		node0_in3_subsurfacecolor, node0_in4_metallic, node0_in5_specular,
		node0_in7_roughness, node0_in12_clearcoat, node0_in13_clearcoatroughness,
		node0_in8_anisotropic, node0_in15_transmission, node0_in14_ior,
		node0_bsdf_out0_albedo, node0_bsdf_out1_sss_strength, node0_bsdf_out2_metallic,
		node0_bsdf_out3_specular, node0_bsdf_out4_roughness, node0_bsdf_out5_clearcoat,
		node0_bsdf_out6_clearcoat_gloss, node0_bsdf_out7_anisotropy,
		node0_bsdf_out8_transmission, node0_bsdf_out9_ior);
	
	
	// node: 'Emission'
	// type: 'ShaderNodeEmission'
	// input sockets handling
	vec4 node1_in0_color = vec4(0.0, 0.0, 0.0, 1.0);
	float node1_in1_strength = float(1.0);
	// output sockets definitions
	float node1_emission_out1_alpha;
	vec3 node1_emission_out0_emission;
	
	node_emission(node1_in0_color, node1_in1_strength, node1_emission_out0_emission,
		node1_emission_out1_alpha);
	
	
	// node: 'Add Shader'
	// type: 'ShaderNodeAddShader'
	// input sockets handling
	float node2_shader_in0_alpha = node1_emission_out1_alpha;
	vec3 node2_shader_in1_emission = node1_emission_out0_emission;
	vec3 node2_shader_in2_albedo = node0_bsdf_out0_albedo;
	float node2_shader_in3_sss_strength = node0_bsdf_out1_sss_strength;
	float node2_shader_in4_specular = node0_bsdf_out3_specular;
	float node2_shader_in5_metallic = node0_bsdf_out2_metallic;
	float node2_shader_in6_roughness = node0_bsdf_out4_roughness;
	float node2_shader_in7_clearcoat = node0_bsdf_out5_clearcoat;
	float node2_shader_in8_clearcoat_gloss = node0_bsdf_out6_clearcoat_gloss;
	float node2_shader_in9_anisotropy = node0_bsdf_out7_anisotropy;
	float node2_shader_in10_transmission = node0_bsdf_out8_transmission;
	float node2_shader_in11_ior = node0_bsdf_out9_ior;
	vec3 node2_shader_in12_normal = node0_in19_normal;
	vec3 node2_shader_in13_tangent = node0_in21_tangent;
	// output sockets definitions
	float node2_shader_out1_alpha;
	
	node2_shader_out1_alpha = mix(node2_shader_in0_alpha, 1.0, 0.5);
	
	
	ALBEDO = node2_shader_in2_albedo;
	SSS_STRENGTH = node2_shader_in3_sss_strength;
	SPECULAR = node2_shader_in4_specular;
	METALLIC = node2_shader_in5_metallic;
	ROUGHNESS = node2_shader_in6_roughness;
	CLEARCOAT = node2_shader_in7_clearcoat;
	CLEARCOAT_GLOSS = node2_shader_in8_clearcoat_gloss;
	EMISSION = node2_shader_in1_emission;
	NORMAL = node2_shader_in12_normal;
	// uncomment it when you need it
	// TRANSMISSION = vec3(1.0, 1.0, 1.0) * node2_shader_in10_transmission;
	// uncomment it when you are modifing TANGENT
	// TANGENT = normalize(cross(cross(node2_shader_in13_tangent, NORMAL), NORMAL));
	// BINORMAL = cross(TANGENT, NORMAL);
	// uncomment it when you have tangent(UV) set
	// ANISOTROPY = node2_shader_in9_anisotropy;
}
"

[sub_resource type="ShaderMaterial" id=2]
shader = SubResource( 1 )

[sub_resource type="Shader" id=3]
resource_name = "Shader Nodetree"
code = "shader_type spatial;
render_mode blend_mix, depth_draw_always, cull_back, diffuse_burley, specular_schlick_ggx;



void node_bsdf_principled(vec4 color, float subsurface, vec4 subsurface_color,
        float metallic, float specular, float roughness, float clearcoat,
        float clearcoat_roughness, float anisotropy, float transmission,
        float IOR, out vec3 albedo, out float sss_strength_out,
        out float metallic_out, out float specular_out,
        out float roughness_out, out float clearcoat_out,
        out float clearcoat_gloss_out, out float anisotropy_out,
        out float transmission_out, out float ior) {
    metallic = clamp(metallic, 0.0, 1.0);
    transmission = clamp(transmission, 0.0, 1.0);

    subsurface = subsurface * (1.0 - metallic);

    albedo = mix(color.rgb, subsurface_color.rgb, subsurface);
    sss_strength_out = subsurface;
    metallic_out = metallic;
    specular_out = pow((IOR - 1.0)/(IOR + 1.0), 2)/0.08;
    roughness_out = roughness;
    clearcoat_out = clearcoat * (1.0 - transmission);
    clearcoat_gloss_out = 1.0 - clearcoat_roughness;
    anisotropy_out = clamp(anisotropy, 0.0, 1.0);
    transmission_out = (1.0 - transmission) * (1.0 - metallic);
    ior = IOR;
}


void node_emission(vec4 emission_color, float strength,
        out vec3 emission_out, out float alpha_out) {
    emission_out = emission_color.rgb * strength;
    alpha_out = emission_color.a;
}

void vertex () {
}

void fragment () {
	
	// node: 'Principled BSDF'
	// type: 'ShaderNodeBsdfPrincipled'
	// input sockets handling
	vec4 node0_in0_basecolor = vec4(0.9607843160629272, 0.7254902124404907,
		0.25882354378700256, 1.0);
	float node0_in1_subsurface = float(0.0);
	vec3 node0_in2_subsurfaceradius = vec3(1.0, 0.20000000298023224,
		0.10000000149011612);
	vec4 node0_in3_subsurfacecolor = vec4(0.800000011920929, 0.800000011920929,
		0.800000011920929, 1.0);
	float node0_in4_metallic = float(0.0);
	float node0_in5_specular = float(0.0);
	float node0_in6_speculartint = float(0.0);
	float node0_in7_roughness = float(0.0);
	float node0_in8_anisotropic = float(0.0);
	float node0_in9_anisotropicrotation = float(0.0);
	float node0_in10_sheen = float(0.0);
	float node0_in11_sheentint = float(0.5);
	float node0_in12_clearcoat = float(0.0);
	float node0_in13_clearcoatroughness = float(0.029999999329447746);
	float node0_in14_ior = float(1.4500000476837158);
	float node0_in15_transmission = float(0.0);
	float node0_in16_transmissionroughness = float(0.0);
	vec4 node0_in17_emission = vec4(0.0, 0.0, 0.0, 1.0);
	float node0_in18_alpha = float(1.0);
	vec3 node0_in19_normal = NORMAL;
	vec3 node0_in20_clearcoatnormal = vec3(0.0, 0.0, 0.0);
	vec3 node0_in21_tangent = TANGENT;
	// output sockets definitions
	vec3 node0_bsdf_out0_albedo;
	float node0_bsdf_out1_sss_strength;
	float node0_bsdf_out3_specular;
	float node0_bsdf_out2_metallic;
	float node0_bsdf_out4_roughness;
	float node0_bsdf_out5_clearcoat;
	float node0_bsdf_out6_clearcoat_gloss;
	float node0_bsdf_out7_anisotropy;
	float node0_bsdf_out8_transmission;
	float node0_bsdf_out9_ior;
	
	node_bsdf_principled(node0_in0_basecolor, node0_in1_subsurface,
		node0_in3_subsurfacecolor, node0_in4_metallic, node0_in5_specular,
		node0_in7_roughness, node0_in12_clearcoat, node0_in13_clearcoatroughness,
		node0_in8_anisotropic, node0_in15_transmission, node0_in14_ior,
		node0_bsdf_out0_albedo, node0_bsdf_out1_sss_strength, node0_bsdf_out2_metallic,
		node0_bsdf_out3_specular, node0_bsdf_out4_roughness, node0_bsdf_out5_clearcoat,
		node0_bsdf_out6_clearcoat_gloss, node0_bsdf_out7_anisotropy,
		node0_bsdf_out8_transmission, node0_bsdf_out9_ior);
	
	
	// node: 'Emission'
	// type: 'ShaderNodeEmission'
	// input sockets handling
	vec4 node1_in0_color = vec4(0.15000000596046448, 0.11326531320810318,
		0.040408167988061905, 1.0);
	float node1_in1_strength = float(1.0);
	// output sockets definitions
	float node1_emission_out1_alpha;
	vec3 node1_emission_out0_emission;
	
	node_emission(node1_in0_color, node1_in1_strength, node1_emission_out0_emission,
		node1_emission_out1_alpha);
	
	
	// node: 'Add Shader'
	// type: 'ShaderNodeAddShader'
	// input sockets handling
	float node2_shader_in0_alpha = node1_emission_out1_alpha;
	vec3 node2_shader_in1_emission = node1_emission_out0_emission;
	vec3 node2_shader_in2_albedo = node0_bsdf_out0_albedo;
	float node2_shader_in3_sss_strength = node0_bsdf_out1_sss_strength;
	float node2_shader_in4_specular = node0_bsdf_out3_specular;
	float node2_shader_in5_metallic = node0_bsdf_out2_metallic;
	float node2_shader_in6_roughness = node0_bsdf_out4_roughness;
	float node2_shader_in7_clearcoat = node0_bsdf_out5_clearcoat;
	float node2_shader_in8_clearcoat_gloss = node0_bsdf_out6_clearcoat_gloss;
	float node2_shader_in9_anisotropy = node0_bsdf_out7_anisotropy;
	float node2_shader_in10_transmission = node0_bsdf_out8_transmission;
	float node2_shader_in11_ior = node0_bsdf_out9_ior;
	vec3 node2_shader_in12_normal = node0_in19_normal;
	vec3 node2_shader_in13_tangent = node0_in21_tangent;
	// output sockets definitions
	float node2_shader_out1_alpha;
	
	node2_shader_out1_alpha = mix(node2_shader_in0_alpha, 1.0, 0.5);
	
	
	ALBEDO = node2_shader_in2_albedo;
	SSS_STRENGTH = node2_shader_in3_sss_strength;
	SPECULAR = node2_shader_in4_specular;
	METALLIC = node2_shader_in5_metallic;
	ROUGHNESS = node2_shader_in6_roughness;
	CLEARCOAT = node2_shader_in7_clearcoat;
	CLEARCOAT_GLOSS = node2_shader_in8_clearcoat_gloss;
	EMISSION = node2_shader_in1_emission;
	NORMAL = node2_shader_in12_normal;
	// uncomment it when you need it
	// TRANSMISSION = vec3(1.0, 1.0, 1.0) * node2_shader_in10_transmission;
	// uncomment it when you are modifing TANGENT
	// TANGENT = normalize(cross(cross(node2_shader_in13_tangent, NORMAL), NORMAL));
	// BINORMAL = cross(TANGENT, NORMAL);
	// uncomment it when you have tangent(UV) set
	// ANISOTROPY = node2_shader_in9_anisotropy;
}
"

[sub_resource type="ShaderMaterial" id=4]
shader = SubResource( 3 )

[resource]
resource_name = "Mesh lanternGlass"
surfaces/0 = {
"aabb": AABB( -0.1196, 0, -0.1196, 0.2392, 0.47918, 0.2392 ),
"array_data": PoolByteArray( 185, 201, 195, 189, 51, 51, 179, 62, 108, 242, 159, 189, 0, 0, 127, 0, 127, 0, 0, 127, 106, 61, 99, 202, 249, 160, 231, 189, 236, 81, 184, 61, 108, 242, 159, 189, 0, 0, 127, 0, 127, 0, 0, 127, 82, 57, 22, 193, 185, 201, 195, 189, 236, 81, 184, 61, 108, 242, 159, 189, 0, 0, 127, 0, 127, 0, 0, 127, 106, 61, 22, 193, 249, 160, 231, 189, 51, 51, 179, 62, 108, 242, 159, 189, 0, 0, 127, 0, 127, 0, 0, 127, 82, 57, 99, 202, 121, 242, 159, 189, 51, 51, 179, 62, 108, 242, 159, 189, 0, 0, 127, 0, 127, 0, 0, 127, 22, 64, 99, 202, 121, 242, 159, 189, 236, 81, 184, 61, 108, 242, 159, 189, 0, 0, 127, 0, 127, 0, 0, 127, 22, 64, 22, 193, 121, 242, 159, 189, 236, 81, 184, 61, 249, 160, 231, 189, 127, 0, 0, 0, 0, 0, 129, 127, 201, 72, 22, 193, 121, 242, 159, 189, 51, 51, 179, 62, 172, 201, 195, 189, 127, 0, 0, 0, 0, 0, 129, 127, 112, 72, 99, 202, 121, 242, 159, 189, 236, 81, 184, 61, 172, 201, 195, 189, 127, 0, 0, 0, 0, 0, 129, 127, 112, 72, 22, 193, 121, 242, 159, 189, 51, 51, 179, 62, 249, 160, 231, 189, 127, 0, 0, 0, 0, 0, 129, 127, 201, 72, 99, 202, 121, 242, 159, 189, 51, 51, 179, 62, 108, 242, 159, 189, 127, 0, 0, 0, 0, 0, 129, 127, 24, 72, 99, 202, 121, 242, 159, 189, 236, 81, 184, 61, 108, 242, 159, 189, 127, 0, 0, 0, 0, 0, 129, 127, 24, 72, 22, 193, 249, 160, 231, 61, 51, 51, 179, 62, 108, 242, 159, 189, 0, 0, 127, 0, 127, 0, 0, 127, 201, 72, 99, 202, 185, 201, 195, 61, 236, 81, 184, 61, 108, 242, 159, 189, 0, 0, 127, 0, 127, 0, 0, 127, 112, 72, 22, 193, 249, 160, 231, 61, 236, 81, 184, 61, 108, 242, 159, 189, 0, 0, 127, 0, 127, 0, 0, 127, 201, 72, 22, 193, 185, 201, 195, 61, 51, 51, 179, 62, 108, 242, 159, 189, 0, 0, 127, 0, 127, 0, 0, 127, 112, 72, 99, 202, 121, 242, 159, 61, 236, 81, 184, 61, 108, 242, 159, 189, 0, 0, 127, 0, 127, 0, 0, 127, 24, 72, 22, 193, 121, 242, 159, 61, 51, 51, 179, 62, 108, 242, 159, 189, 0, 0, 127, 0, 127, 0, 0, 127, 24, 72, 99, 202, 121, 242, 159, 61, 236, 81, 184, 61, 249, 160, 231, 61, 0, 127, 0, 0, 127, 0, 0, 127, 24, 72, 90, 53, 121, 242, 159, 189, 236, 81, 184, 61, 185, 201, 195, 61, 0, 127, 0, 0, 127, 0, 0, 127, 22, 64, 171, 181, 121, 242, 159, 189, 236, 81, 184, 61, 249, 160, 231, 61, 0, 127, 0, 0, 127, 0, 0, 127, 22, 64, 90, 53, 121, 242, 159, 61, 236, 81, 184, 61, 185, 201, 195, 61, 0, 127, 0, 0, 127, 0, 0, 127, 24, 72, 171, 181, 121, 242, 159, 189, 236, 81, 184, 61, 121, 242, 159, 61, 0, 127, 0, 0, 127, 0, 0, 127, 22, 64, 44, 188, 121, 242, 159, 189, 236, 81, 184, 61, 108, 242, 159, 189, 0, 127, 0, 0, 127, 0, 0, 127, 22, 64, 49, 199, 121, 242, 159, 189, 236, 81, 184, 61, 172, 201, 195, 189, 0, 127, 0, 0, 127, 0, 0, 127, 22, 64, 225, 199, 121, 242, 159, 189, 236, 81, 184, 61, 172, 201, 195, 189, 0, 127, 0, 0, 127, 0, 0, 127, 22, 64, 225, 199, 121, 242, 159, 61, 236, 81, 184, 61, 185, 201, 195, 61, 0, 127, 0, 0, 127, 0, 0, 127, 24, 72, 171, 181, 121, 242, 159, 61, 236, 81, 184, 61, 172, 201, 195, 189, 0, 127, 0, 0, 127, 0, 0, 127, 24, 72, 225, 199, 121, 242, 159, 61, 236, 81, 184, 61, 172, 201, 195, 189, 0, 127, 0, 0, 127, 0, 0, 127, 24, 72, 225, 199, 121, 242, 159, 189, 236, 81, 184, 61, 249, 160, 231, 189, 0, 127, 0, 0, 127, 0, 0, 127, 22, 64, 73, 200, 121, 242, 159, 189, 236, 81, 184, 61, 172, 201, 195, 189, 0, 127, 0, 0, 127, 0, 0, 127, 22, 64, 225, 199, 121, 242, 159, 61, 236, 81, 184, 61, 249, 160, 231, 189, 0, 127, 0, 0, 127, 0, 0, 127, 24, 72, 73, 200, 121, 242, 159, 61, 236, 81, 184, 61, 172, 201, 195, 189, 129, 0, 0, 0, 127, 0, 0, 129, 24, 72, 225, 199, 121, 242, 159, 61, 236, 81, 184, 61, 185, 201, 195, 61, 129, 0, 0, 0, 127, 0, 0, 129, 24, 72, 171, 181, 121, 242, 159, 61, 236, 81, 184, 61, 121, 242, 159, 61, 129, 0, 0, 0, 127, 0, 0, 129, 24, 72, 44, 188, 121, 242, 159, 61, 236, 81, 184, 61, 108, 242, 159, 189, 34, 139, 34, 0, 127, 0, 0, 129, 24, 72, 49, 199, 185, 201, 195, 61, 236, 81, 184, 61, 121, 242, 159, 61, 0, 127, 0, 0, 127, 0, 0, 127, 112, 72, 44, 188, 121, 242, 159, 61, 236, 81, 184, 61, 108, 242, 159, 189, 0, 127, 0, 0, 127, 0, 0, 127, 24, 72, 49, 199, 121, 242, 159, 61, 236, 81, 184, 61, 121, 242, 159, 61, 0, 127, 0, 0, 127, 0, 0, 127, 24, 72, 44, 188, 185, 201, 195, 61, 236, 81, 184, 61, 108, 242, 159, 189, 0, 127, 0, 0, 127, 0, 0, 127, 112, 72, 49, 199, 249, 160, 231, 61, 236, 81, 184, 61, 121, 242, 159, 61, 0, 127, 0, 0, 127, 0, 0, 127, 201, 72, 44, 188, 185, 201, 195, 61, 236, 81, 184, 61, 108, 242, 159, 189, 0, 127, 0, 0, 127, 0, 0, 127, 112, 72, 49, 199, 185, 201, 195, 61, 236, 81, 184, 61, 121, 242, 159, 61, 0, 127, 0, 0, 127, 0, 0, 127, 112, 72, 44, 188, 249, 160, 231, 61, 236, 81, 184, 61, 108, 242, 159, 189, 0, 127, 0, 0, 127, 0, 0, 127, 201, 72, 49, 199, 185, 201, 195, 189, 236, 81, 184, 61, 108, 242, 159, 189, 0, 127, 0, 0, 127, 0, 0, 127, 106, 61, 49, 199, 185, 201, 195, 189, 236, 81, 184, 61, 121, 242, 159, 61, 0, 127, 0, 0, 127, 0, 0, 127, 106, 61, 44, 188, 249, 160, 231, 189, 236, 81, 184, 61, 108, 242, 159, 189, 0, 127, 0, 0, 127, 0, 0, 127, 82, 57, 49, 199, 249, 160, 231, 189, 236, 81, 184, 61, 121, 242, 159, 61, 0, 127, 0, 0, 127, 0, 0, 127, 82, 57, 44, 188, 121, 242, 159, 61, 51, 51, 179, 62, 249, 160, 231, 189, 129, 0, 0, 0, 0, 0, 127, 127, 201, 200, 99, 202, 121, 242, 159, 61, 236, 81, 184, 61, 172, 201, 195, 189, 129, 0, 0, 0, 0, 0, 127, 127, 112, 200, 22, 193, 121, 242, 159, 61, 51, 51, 179, 62, 172, 201, 195, 189, 129, 0, 0, 0, 0, 0, 127, 127, 112, 200, 99, 202, 121, 242, 159, 61, 236, 81, 184, 61, 249, 160, 231, 189, 129, 0, 0, 0, 0, 0, 127, 127, 201, 200, 22, 193, 121, 242, 159, 61, 236, 81, 184, 61, 108, 242, 159, 189, 129, 0, 0, 0, 0, 0, 127, 127, 24, 200, 22, 193, 121, 242, 159, 61, 51, 51, 179, 62, 108, 242, 159, 189, 129, 0, 0, 0, 0, 0, 127, 127, 24, 200, 99, 202, 42, 241, 159, 189, 246, 40, 220, 62, 42, 241, 159, 61, 0, 127, 0, 0, 127, 0, 0, 127, 22, 64, 44, 188, 167, 157, 16, 189, 246, 40, 220, 62, 219, 239, 154, 60, 0, 127, 0, 0, 127, 0, 0, 127, 116, 67, 191, 194, 42, 241, 159, 189, 246, 40, 220, 62, 28, 241, 159, 189, 0, 127, 0, 0, 127, 0, 0, 127, 22, 64, 49, 199, 167, 157, 16, 189, 246, 40, 220, 62, 219, 239, 154, 60, 0, 127, 0, 0, 127, 0, 0, 127, 116, 67, 191, 194, 42, 241, 159, 189, 246, 40, 220, 62, 42, 241, 159, 61, 0, 127, 0, 0, 127, 0, 0, 127, 22, 64, 44, 188, 28, 241, 159, 61, 246, 40, 220, 62, 42, 241, 159, 61, 0, 127, 0, 0, 127, 0, 0, 127, 24, 72, 44, 188, 167, 157, 16, 189, 246, 40, 220, 62, 219, 239, 154, 60, 0, 127, 0, 0, 127, 0, 0, 127, 116, 67, 191, 194, 28, 241, 159, 61, 246, 40, 220, 62, 42, 241, 159, 61, 0, 127, 0, 0, 127, 0, 0, 127, 24, 72, 44, 188, 77, 60, 150, 188, 246, 40, 220, 62, 219, 239, 154, 60, 0, 127, 0, 0, 127, 0, 0, 127, 101, 68, 191, 194, 77, 60, 150, 188, 246, 40, 220, 62, 219, 239, 154, 60, 0, 127, 0, 0, 127, 0, 0, 127, 101, 68, 191, 194, 28, 241, 159, 61, 246, 40, 220, 62, 42, 241, 159, 61, 0, 127, 0, 0, 127, 0, 0, 127, 24, 72, 44, 188, 23, 60, 150, 60, 246, 40, 220, 62, 219, 239, 154, 60, 0, 127, 0, 0, 127, 0, 0, 127, 215, 69, 191, 194, 77, 60, 150, 188, 246, 40, 220, 62, 219, 239, 154, 60, 0, 127, 0, 0, 127, 0, 0, 127, 101, 68, 191, 194, 23, 60, 150, 60, 246, 40, 220, 62, 219, 239, 154, 60, 0, 127, 0, 0, 127, 0, 0, 127, 215, 69, 191, 194, 77, 60, 150, 188, 246, 40, 220, 62, 219, 239, 154, 188, 0, 127, 0, 0, 127, 0, 0, 127, 101, 68, 220, 196, 23, 60, 150, 60, 246, 40, 220, 62, 219, 239, 154, 60, 0, 127, 0, 0, 127, 0, 0, 127, 215, 69, 191, 194, 167, 157, 16, 61, 246, 40, 220, 62, 219, 239, 154, 60, 0, 127, 0, 0, 127, 0, 0, 127, 130, 70, 191, 194, 167, 157, 16, 61, 246, 40, 220, 62, 219, 239, 154, 60, 0, 127, 0, 0, 127, 0, 0, 127, 130, 70, 191, 194, 28, 241, 159, 61, 246, 40, 220, 62, 42, 241, 159, 61, 0, 127, 0, 0, 127, 0, 0, 127, 24, 72, 44, 188, 167, 157, 16, 61, 246, 40, 220, 62, 219, 239, 154, 188, 0, 127, 0, 0, 127, 0, 0, 127, 130, 70, 220, 196, 167, 157, 16, 189, 246, 40, 220, 62, 219, 239, 154, 188, 0, 127, 0, 0, 127, 0, 0, 127, 116, 67, 220, 196, 42, 241, 159, 189, 246, 40, 220, 62, 28, 241, 159, 189, 0, 127, 0, 0, 127, 0, 0, 127, 22, 64, 49, 199, 167, 157, 16, 189, 246, 40, 220, 62, 219, 239, 154, 60, 0, 127, 0, 0, 127, 0, 0, 127, 116, 67, 191, 194, 42, 241, 159, 189, 246, 40, 220, 62, 28, 241, 159, 189, 0, 127, 0, 0, 127, 0, 0, 127, 22, 64, 49, 199, 167, 157, 16, 189, 246, 40, 220, 62, 219, 239, 154, 188, 0, 127, 0, 0, 127, 0, 0, 127, 116, 67, 220, 196, 28, 241, 159, 61, 246, 40, 220, 62, 28, 241, 159, 189, 0, 127, 0, 0, 127, 0, 0, 127, 24, 72, 49, 199, 28, 241, 159, 61, 246, 40, 220, 62, 28, 241, 159, 189, 0, 127, 0, 0, 127, 0, 0, 127, 24, 72, 49, 199, 167, 157, 16, 189, 246, 40, 220, 62, 219, 239, 154, 188, 0, 127, 0, 0, 127, 0, 0, 127, 116, 67, 220, 196, 77, 60, 150, 188, 246, 40, 220, 62, 219, 239, 154, 188, 0, 127, 0, 0, 127, 0, 0, 127, 101, 68, 220, 196, 28, 241, 159, 61, 246, 40, 220, 62, 28, 241, 159, 189, 0, 127, 0, 0, 127, 0, 0, 127, 24, 72, 49, 199, 167, 157, 16, 61, 246, 40, 220, 62, 219, 239, 154, 188, 0, 127, 0, 0, 127, 0, 0, 127, 130, 70, 220, 196, 28, 241, 159, 61, 246, 40, 220, 62, 42, 241, 159, 61, 0, 127, 0, 0, 127, 0, 0, 127, 24, 72, 44, 188, 28, 241, 159, 61, 246, 40, 220, 62, 28, 241, 159, 189, 0, 127, 0, 0, 127, 0, 0, 127, 24, 72, 49, 199, 77, 60, 150, 188, 246, 40, 220, 62, 219, 239, 154, 188, 0, 127, 0, 0, 127, 0, 0, 127, 101, 68, 220, 196, 23, 60, 150, 60, 246, 40, 220, 62, 219, 239, 154, 188, 0, 127, 0, 0, 127, 0, 0, 127, 215, 69, 220, 196, 23, 60, 150, 60, 246, 40, 220, 62, 219, 239, 154, 188, 0, 127, 0, 0, 127, 0, 0, 127, 215, 69, 220, 196, 23, 60, 150, 60, 246, 40, 220, 62, 219, 239, 154, 188, 0, 127, 0, 0, 127, 0, 0, 127, 215, 69, 220, 196, 167, 157, 16, 61, 246, 40, 220, 62, 219, 239, 154, 188, 0, 127, 0, 0, 127, 0, 0, 127, 130, 70, 220, 196, 121, 242, 159, 61, 51, 51, 179, 62, 185, 201, 195, 61, 0, 129, 0, 0, 129, 0, 0, 127, 24, 200, 171, 181, 121, 242, 159, 189, 51, 51, 179, 62, 249, 160, 231, 61, 0, 129, 0, 0, 129, 0, 0, 127, 22, 192, 90, 53, 121, 242, 159, 189, 51, 51, 179, 62, 185, 201, 195, 61, 0, 129, 0, 0, 129, 0, 0, 127, 22, 192, 171, 181, 121, 242, 159, 61, 51, 51, 179, 62, 249, 160, 231, 61, 0, 129, 0, 0, 129, 0, 0, 127, 24, 200, 90, 53, 121, 242, 159, 189, 51, 51, 179, 62, 185, 201, 195, 61, 0, 129, 0, 0, 129, 0, 0, 127, 22, 192, 171, 181, 121, 242, 159, 61, 51, 51, 179, 62, 172, 201, 195, 189, 0, 129, 0, 0, 129, 0, 0, 127, 24, 200, 225, 199, 121, 242, 159, 61, 51, 51, 179, 62, 185, 201, 195, 61, 0, 129, 0, 0, 129, 0, 0, 127, 24, 200, 171, 181, 121, 242, 159, 189, 51, 51, 179, 62, 121, 242, 159, 61, 0, 129, 0, 0, 129, 0, 0, 127, 22, 192, 44, 188, 121, 242, 159, 61, 51, 51, 179, 62, 172, 201, 195, 189, 0, 129, 0, 0, 129, 0, 0, 127, 24, 200, 225, 199, 121, 242, 159, 189, 51, 51, 179, 62, 185, 201, 195, 61, 0, 129, 0, 0, 129, 0, 0, 127, 22, 192, 171, 181, 121, 242, 159, 189, 51, 51, 179, 62, 108, 242, 159, 189, 0, 129, 0, 0, 129, 0, 0, 127, 22, 192, 49, 199, 121, 242, 159, 61, 51, 51, 179, 62, 172, 201, 195, 189, 0, 129, 0, 0, 129, 0, 0, 127, 24, 200, 225, 199, 121, 242, 159, 189, 51, 51, 179, 62, 121, 242, 159, 61, 0, 129, 0, 0, 129, 0, 0, 127, 22, 192, 44, 188, 121, 242, 159, 189, 51, 51, 179, 62, 172, 201, 195, 189, 0, 129, 0, 0, 129, 0, 0, 127, 22, 192, 225, 199, 121, 242, 159, 61, 51, 51, 179, 62, 249, 160, 231, 189, 0, 129, 0, 0, 129, 0, 0, 127, 24, 200, 73, 200, 121, 242, 159, 189, 51, 51, 179, 62, 249, 160, 231, 189, 0, 129, 0, 0, 129, 0, 0, 127, 22, 192, 73, 200, 121, 242, 159, 61, 51, 51, 179, 62, 185, 201, 195, 61, 0, 129, 0, 0, 127, 0, 0, 129, 24, 200, 171, 181, 121, 242, 159, 61, 51, 51, 179, 62, 172, 201, 195, 189, 129, 0, 0, 0, 127, 0, 0, 129, 24, 200, 225, 199, 121, 242, 159, 61, 51, 51, 179, 62, 108, 242, 159, 189, 129, 0, 0, 0, 127, 0, 0, 129, 24, 200, 49, 199, 121, 242, 159, 61, 51, 51, 179, 62, 121, 242, 159, 61, 222, 139, 222, 0, 127, 0, 0, 129, 24, 200, 44, 188, 185, 201, 195, 61, 51, 51, 179, 62, 108, 242, 159, 189, 0, 129, 0, 0, 129, 0, 0, 127, 112, 200, 49, 199, 121, 242, 159, 61, 51, 51, 179, 62, 121, 242, 159, 61, 0, 129, 0, 0, 129, 0, 0, 127, 24, 200, 44, 188, 121, 242, 159, 61, 51, 51, 179, 62, 108, 242, 159, 189, 0, 129, 0, 0, 129, 0, 0, 127, 24, 200, 49, 199, 185, 201, 195, 61, 51, 51, 179, 62, 121, 242, 159, 61, 0, 129, 0, 0, 129, 0, 0, 127, 112, 200, 44, 188, 249, 160, 231, 61, 51, 51, 179, 62, 108, 242, 159, 189, 0, 129, 0, 0, 129, 0, 0, 127, 201, 200, 49, 199, 185, 201, 195, 61, 51, 51, 179, 62, 121, 242, 159, 61, 0, 129, 0, 0, 129, 0, 0, 127, 112, 200, 44, 188, 185, 201, 195, 61, 51, 51, 179, 62, 108, 242, 159, 189, 0, 129, 0, 0, 129, 0, 0, 127, 112, 200, 49, 199, 249, 160, 231, 61, 51, 51, 179, 62, 121, 242, 159, 61, 0, 129, 0, 0, 129, 0, 0, 127, 201, 200, 44, 188, 185, 201, 195, 189, 51, 51, 179, 62, 121, 242, 159, 61, 0, 129, 0, 0, 129, 0, 0, 127, 106, 189, 44, 188, 185, 201, 195, 189, 51, 51, 179, 62, 108, 242, 159, 189, 0, 129, 0, 0, 129, 0, 0, 127, 106, 189, 49, 199, 249, 160, 231, 189, 51, 51, 179, 62, 121, 242, 159, 61, 0, 129, 0, 0, 129, 0, 0, 127, 82, 185, 44, 188, 249, 160, 231, 189, 51, 51, 179, 62, 108, 242, 159, 189, 0, 129, 0, 0, 129, 0, 0, 127, 82, 185, 49, 199, 216, 240, 244, 189, 143, 194, 117, 61, 216, 240, 244, 189, 129, 0, 0, 0, 0, 0, 127, 127, 233, 200, 114, 189, 216, 240, 244, 189, 0, 0, 0, 0, 216, 240, 244, 61, 129, 0, 0, 0, 0, 0, 127, 127, 141, 182, 0, 60, 216, 240, 244, 189, 143, 194, 117, 61, 216, 240, 244, 61, 129, 0, 0, 0, 0, 0, 127, 127, 141, 182, 114, 189, 216, 240, 244, 189, 0, 0, 0, 0, 216, 240, 244, 189, 129, 0, 0, 0, 0, 0, 127, 127, 233, 200, 0, 60, 216, 240, 244, 61, 0, 0, 0, 0, 216, 240, 244, 189, 127, 0, 0, 0, 0, 0, 129, 127, 233, 72, 0, 60, 216, 240, 244, 61, 143, 194, 117, 61, 216, 240, 244, 61, 127, 0, 0, 0, 0, 0, 129, 127, 141, 54, 114, 189, 216, 240, 244, 61, 0, 0, 0, 0, 216, 240, 244, 61, 127, 0, 0, 0, 0, 0, 129, 127, 141, 54, 0, 60, 216, 240, 244, 61, 143, 194, 117, 61, 216, 240, 244, 189, 127, 0, 0, 0, 0, 0, 129, 127, 233, 72, 114, 189, 216, 240, 244, 189, 143, 194, 117, 61, 216, 240, 244, 189, 0, 0, 129, 0, 129, 0, 0, 127, 141, 182, 114, 189, 216, 240, 244, 61, 0, 0, 0, 0, 216, 240, 244, 189, 0, 0, 129, 0, 129, 0, 0, 127, 233, 200, 0, 60, 216, 240, 244, 189, 0, 0, 0, 0, 216, 240, 244, 189, 0, 0, 129, 0, 129, 0, 0, 127, 141, 182, 0, 60, 216, 240, 244, 61, 143, 194, 117, 61, 216, 240, 244, 189, 0, 0, 129, 0, 129, 0, 0, 127, 233, 200, 114, 189, 216, 240, 244, 61, 143, 194, 117, 61, 216, 240, 244, 61, 0, 0, 127, 0, 127, 0, 0, 127, 233, 72, 114, 189, 216, 240, 244, 189, 0, 0, 0, 0, 216, 240, 244, 61, 0, 0, 127, 0, 127, 0, 0, 127, 141, 54, 0, 60, 216, 240, 244, 61, 0, 0, 0, 0, 216, 240, 244, 61, 0, 0, 127, 0, 127, 0, 0, 127, 233, 72, 0, 60, 216, 240, 244, 189, 143, 194, 117, 61, 216, 240, 244, 61, 0, 0, 127, 0, 127, 0, 0, 127, 141, 54, 114, 189, 249, 160, 231, 189, 205, 204, 204, 62, 249, 160, 231, 61, 129, 0, 0, 0, 0, 0, 127, 127, 82, 185, 95, 203, 249, 160, 231, 189, 51, 51, 179, 62, 121, 242, 159, 61, 129, 0, 0, 0, 0, 0, 127, 127, 22, 192, 99, 202, 249, 160, 231, 189, 236, 81, 184, 61, 249, 160, 231, 61, 129, 0, 0, 0, 0, 0, 127, 127, 82, 185, 22, 193, 249, 160, 231, 189, 51, 51, 179, 62, 121, 242, 159, 61, 129, 0, 0, 0, 0, 0, 127, 127, 22, 192, 99, 202, 249, 160, 231, 189, 205, 204, 204, 62, 249, 160, 231, 61, 129, 0, 0, 0, 0, 0, 127, 127, 82, 185, 95, 203, 249, 160, 231, 189, 205, 204, 204, 62, 249, 160, 231, 189, 129, 0, 0, 0, 0, 0, 127, 127, 201, 200, 95, 203, 249, 160, 231, 189, 51, 51, 179, 62, 121, 242, 159, 61, 129, 0, 0, 0, 0, 0, 127, 127, 22, 192, 99, 202, 249, 160, 231, 189, 205, 204, 204, 62, 249, 160, 231, 189, 129, 0, 0, 0, 0, 0, 127, 127, 201, 200, 95, 203, 249, 160, 231, 189, 51, 51, 179, 62, 108, 242, 159, 189, 129, 0, 0, 0, 0, 0, 127, 127, 24, 200, 99, 202, 249, 160, 231, 189, 236, 81, 184, 61, 108, 242, 159, 189, 129, 0, 0, 0, 0, 0, 127, 127, 24, 200, 22, 193, 249, 160, 231, 189, 236, 81, 184, 61, 249, 160, 231, 189, 129, 0, 0, 0, 0, 0, 127, 127, 201, 200, 22, 193, 249, 160, 231, 189, 236, 81, 184, 61, 121, 242, 159, 61, 129, 0, 0, 0, 0, 0, 127, 127, 22, 192, 22, 193, 249, 160, 231, 189, 236, 81, 184, 61, 249, 160, 231, 61, 129, 0, 0, 0, 0, 0, 127, 127, 82, 185, 22, 193, 249, 160, 231, 189, 51, 51, 179, 62, 121, 242, 159, 61, 129, 0, 0, 0, 0, 0, 127, 127, 22, 192, 99, 202, 249, 160, 231, 189, 205, 204, 204, 62, 249, 160, 231, 189, 0, 0, 129, 0, 129, 0, 0, 127, 82, 185, 95, 203, 121, 242, 159, 189, 236, 81, 184, 61, 249, 160, 231, 189, 0, 0, 129, 0, 129, 0, 0, 127, 22, 192, 22, 193, 249, 160, 231, 189, 236, 81, 184, 61, 249, 160, 231, 189, 0, 0, 129, 0, 129, 0, 0, 127, 82, 185, 22, 193, 121, 242, 159, 189, 236, 81, 184, 61, 249, 160, 231, 189, 0, 0, 129, 0, 129, 0, 0, 127, 22, 192, 22, 193, 249, 160, 231, 189, 205, 204, 204, 62, 249, 160, 231, 189, 0, 0, 129, 0, 129, 0, 0, 127, 82, 185, 95, 203, 121, 242, 159, 189, 51, 51, 179, 62, 249, 160, 231, 189, 0, 0, 129, 0, 129, 0, 0, 127, 22, 192, 99, 202, 249, 160, 231, 61, 205, 204, 204, 62, 249, 160, 231, 189, 0, 0, 129, 0, 129, 0, 0, 127, 201, 200, 95, 203, 121, 242, 159, 189, 51, 51, 179, 62, 249, 160, 231, 189, 0, 0, 129, 0, 129, 0, 0, 127, 22, 192, 99, 202, 249, 160, 231, 189, 205, 204, 204, 62, 249, 160, 231, 189, 0, 0, 129, 0, 129, 0, 0, 127, 82, 185, 95, 203, 249, 160, 231, 61, 205, 204, 204, 62, 249, 160, 231, 189, 0, 0, 129, 0, 129, 0, 0, 127, 201, 200, 95, 203, 121, 242, 159, 61, 51, 51, 179, 62, 249, 160, 231, 189, 0, 0, 129, 0, 129, 0, 0, 127, 24, 200, 99, 202, 121, 242, 159, 189, 51, 51, 179, 62, 249, 160, 231, 189, 0, 0, 129, 0, 129, 0, 0, 127, 22, 192, 99, 202, 249, 160, 231, 61, 236, 81, 184, 61, 249, 160, 231, 189, 0, 0, 129, 0, 129, 0, 0, 127, 201, 200, 22, 193, 121, 242, 159, 61, 51, 51, 179, 62, 249, 160, 231, 189, 0, 0, 129, 0, 129, 0, 0, 127, 24, 200, 99, 202, 249, 160, 231, 61, 205, 204, 204, 62, 249, 160, 231, 189, 0, 0, 129, 0, 129, 0, 0, 127, 201, 200, 95, 203, 121, 242, 159, 61, 51, 51, 179, 62, 249, 160, 231, 189, 0, 0, 129, 0, 129, 0, 0, 127, 24, 200, 99, 202, 249, 160, 231, 61, 236, 81, 184, 61, 249, 160, 231, 189, 0, 0, 129, 0, 129, 0, 0, 127, 201, 200, 22, 193, 121, 242, 159, 61, 236, 81, 184, 61, 249, 160, 231, 189, 0, 0, 129, 0, 129, 0, 0, 127, 24, 200, 22, 193, 121, 242, 159, 189, 236, 81, 184, 61, 185, 201, 195, 61, 127, 0, 0, 0, 0, 0, 129, 127, 106, 61, 22, 193, 121, 242, 159, 189, 51, 51, 179, 62, 249, 160, 231, 61, 127, 0, 0, 0, 0, 0, 129, 127, 82, 57, 99, 202, 121, 242, 159, 189, 236, 81, 184, 61, 249, 160, 231, 61, 127, 0, 0, 0, 0, 0, 129, 127, 82, 57, 22, 193, 121, 242, 159, 189, 51, 51, 179, 62, 185, 201, 195, 61, 127, 0, 0, 0, 0, 0, 129, 127, 106, 61, 99, 202, 121, 242, 159, 189, 236, 81, 184, 61, 121, 242, 159, 61, 127, 0, 0, 0, 0, 0, 129, 127, 22, 64, 22, 193, 121, 242, 159, 189, 51, 51, 179, 62, 185, 201, 195, 61, 127, 0, 0, 0, 0, 0, 129, 127, 106, 61, 99, 202, 121, 242, 159, 189, 236, 81, 184, 61, 121, 242, 159, 61, 127, 0, 0, 0, 0, 0, 129, 127, 22, 64, 22, 193, 121, 242, 159, 189, 51, 51, 179, 62, 121, 242, 159, 61, 127, 0, 0, 0, 0, 0, 129, 127, 22, 64, 99, 202, 185, 201, 195, 189, 51, 51, 179, 62, 121, 242, 159, 61, 0, 0, 129, 0, 129, 0, 0, 127, 106, 189, 99, 202, 121, 242, 159, 189, 236, 81, 184, 61, 121, 242, 159, 61, 0, 0, 129, 0, 129, 0, 0, 127, 22, 192, 22, 193, 185, 201, 195, 189, 236, 81, 184, 61, 121, 242, 159, 61, 0, 0, 129, 0, 129, 0, 0, 127, 106, 189, 22, 193, 121, 242, 159, 189, 51, 51, 179, 62, 121, 242, 159, 61, 0, 0, 129, 0, 129, 0, 0, 127, 22, 192, 99, 202, 249, 160, 231, 189, 51, 51, 179, 62, 121, 242, 159, 61, 0, 0, 129, 0, 129, 0, 0, 127, 82, 185, 99, 202, 249, 160, 231, 189, 236, 81, 184, 61, 121, 242, 159, 61, 0, 0, 129, 0, 129, 0, 0, 127, 82, 185, 22, 193, 121, 242, 159, 61, 51, 51, 179, 62, 185, 201, 195, 61, 129, 0, 0, 0, 0, 0, 127, 127, 106, 189, 99, 202, 121, 242, 159, 61, 236, 81, 184, 61, 249, 160, 231, 61, 129, 0, 0, 0, 0, 0, 127, 127, 82, 185, 22, 193, 121, 242, 159, 61, 51, 51, 179, 62, 249, 160, 231, 61, 129, 0, 0, 0, 0, 0, 127, 127, 82, 185, 99, 202, 121, 242, 159, 61, 236, 81, 184, 61, 185, 201, 195, 61, 129, 0, 0, 0, 0, 0, 127, 127, 106, 189, 22, 193, 121, 242, 159, 61, 51, 51, 179, 62, 121, 242, 159, 61, 129, 0, 0, 0, 0, 0, 127, 127, 22, 192, 99, 202, 121, 242, 159, 61, 236, 81, 184, 61, 185, 201, 195, 61, 129, 0, 0, 0, 0, 0, 127, 127, 106, 189, 22, 193, 121, 242, 159, 61, 51, 51, 179, 62, 185, 201, 195, 61, 129, 0, 0, 0, 0, 0, 127, 127, 106, 189, 99, 202, 121, 242, 159, 61, 51, 51, 179, 62, 121, 242, 159, 61, 129, 0, 0, 0, 0, 0, 127, 127, 22, 192, 99, 202, 121, 242, 159, 61, 236, 81, 184, 61, 121, 242, 159, 61, 129, 0, 0, 0, 0, 0, 127, 127, 22, 192, 22, 193, 185, 201, 195, 61, 51, 51, 179, 62, 121, 242, 159, 61, 0, 0, 129, 0, 129, 0, 0, 127, 112, 200, 99, 202, 249, 160, 231, 61, 236, 81, 184, 61, 121, 242, 159, 61, 0, 0, 129, 0, 129, 0, 0, 127, 201, 200, 22, 193, 185, 201, 195, 61, 236, 81, 184, 61, 121, 242, 159, 61, 0, 0, 129, 0, 129, 0, 0, 127, 112, 200, 22, 193, 249, 160, 231, 61, 51, 51, 179, 62, 121, 242, 159, 61, 0, 0, 129, 0, 129, 0, 0, 127, 201, 200, 99, 202, 121, 242, 159, 61, 51, 51, 179, 62, 121, 242, 159, 61, 0, 0, 129, 0, 129, 0, 0, 127, 24, 200, 99, 202, 121, 242, 159, 61, 236, 81, 184, 61, 121, 242, 159, 61, 0, 0, 129, 0, 129, 0, 0, 127, 24, 200, 22, 193, 249, 160, 231, 61, 236, 81, 184, 61, 249, 160, 231, 61, 0, 26, 124, 0, 127, 0, 0, 127, 201, 72, 53, 193, 216, 240, 244, 189, 143, 194, 117, 61, 216, 240, 244, 61, 0, 26, 124, 0, 127, 0, 0, 127, 141, 54, 148, 189, 216, 240, 244, 61, 143, 194, 117, 61, 216, 240, 244, 61, 0, 26, 124, 0, 127, 0, 0, 127, 233, 72, 148, 189, 216, 240, 244, 189, 143, 194, 117, 61, 216, 240, 244, 61, 0, 26, 124, 0, 127, 0, 0, 127, 141, 54, 148, 189, 249, 160, 231, 61, 236, 81, 184, 61, 249, 160, 231, 61, 0, 26, 124, 0, 127, 0, 0, 127, 201, 72, 53, 193, 121, 242, 159, 61, 236, 81, 184, 61, 249, 160, 231, 61, 0, 26, 124, 0, 127, 0, 0, 127, 24, 72, 53, 193, 121, 242, 159, 61, 236, 81, 184, 61, 249, 160, 231, 61, 0, 26, 124, 0, 127, 0, 0, 127, 24, 72, 53, 193, 249, 160, 231, 189, 236, 81, 184, 61, 249, 160, 231, 61, 0, 26, 124, 0, 127, 0, 0, 127, 82, 57, 53, 193, 216, 240, 244, 189, 143, 194, 117, 61, 216, 240, 244, 61, 0, 26, 124, 0, 127, 0, 0, 127, 141, 54, 148, 189, 249, 160, 231, 189, 236, 81, 184, 61, 249, 160, 231, 61, 0, 124, 230, 0, 127, 0, 0, 129, 82, 57, 53, 193, 121, 242, 159, 61, 236, 81, 184, 61, 249, 160, 231, 61, 0, 124, 230, 0, 127, 0, 0, 129, 24, 72, 53, 193, 121, 242, 159, 189, 236, 81, 184, 61, 249, 160, 231, 61, 0, 124, 230, 0, 127, 0, 0, 129, 22, 64, 53, 193, 216, 240, 244, 61, 143, 194, 117, 61, 216, 240, 244, 189, 124, 26, 0, 0, 0, 0, 129, 127, 233, 72, 45, 58, 249, 160, 231, 61, 236, 81, 184, 61, 249, 160, 231, 61, 124, 26, 0, 0, 0, 0, 129, 127, 82, 57, 251, 182, 216, 240, 244, 61, 143, 194, 117, 61, 216, 240, 244, 61, 124, 26, 0, 0, 0, 0, 129, 127, 141, 54, 45, 58, 249, 160, 231, 61, 236, 81, 184, 61, 249, 160, 231, 61, 124, 26, 0, 0, 0, 0, 129, 127, 82, 57, 251, 182, 216, 240, 244, 61, 143, 194, 117, 61, 216, 240, 244, 189, 124, 26, 0, 0, 0, 0, 129, 127, 233, 72, 45, 58, 249, 160, 231, 61, 236, 81, 184, 61, 121, 242, 159, 61, 124, 26, 0, 0, 0, 0, 129, 127, 22, 64, 251, 182, 249, 160, 231, 61, 236, 81, 184, 61, 121, 242, 159, 61, 124, 26, 0, 0, 0, 0, 129, 127, 22, 64, 251, 182, 216, 240, 244, 61, 143, 194, 117, 61, 216, 240, 244, 189, 124, 26, 0, 0, 0, 0, 129, 127, 233, 72, 45, 58, 249, 160, 231, 61, 236, 81, 184, 61, 108, 242, 159, 189, 124, 26, 0, 0, 0, 0, 129, 127, 24, 72, 251, 182, 249, 160, 231, 61, 236, 81, 184, 61, 108, 242, 159, 189, 124, 26, 0, 0, 0, 0, 129, 127, 24, 72, 251, 182, 216, 240, 244, 61, 143, 194, 117, 61, 216, 240, 244, 189, 124, 26, 0, 0, 0, 0, 129, 127, 233, 72, 45, 58, 249, 160, 231, 61, 236, 81, 184, 61, 249, 160, 231, 189, 124, 26, 0, 0, 0, 0, 129, 127, 201, 72, 251, 182, 249, 160, 231, 189, 236, 81, 184, 61, 249, 160, 231, 189, 0, 26, 132, 0, 129, 0, 0, 127, 82, 185, 251, 182, 216, 240, 244, 61, 143, 194, 117, 61, 216, 240, 244, 189, 0, 26, 132, 0, 129, 0, 0, 127, 233, 200, 45, 58, 216, 240, 244, 189, 143, 194, 117, 61, 216, 240, 244, 189, 0, 26, 132, 0, 129, 0, 0, 127, 141, 182, 45, 58, 216, 240, 244, 61, 143, 194, 117, 61, 216, 240, 244, 189, 0, 26, 132, 0, 129, 0, 0, 127, 233, 200, 45, 58, 249, 160, 231, 189, 236, 81, 184, 61, 249, 160, 231, 189, 0, 26, 132, 0, 129, 0, 0, 127, 82, 185, 251, 182, 121, 242, 159, 61, 236, 81, 184, 61, 249, 160, 231, 189, 0, 26, 132, 0, 129, 0, 0, 127, 24, 200, 251, 182, 121, 242, 159, 61, 236, 81, 184, 61, 249, 160, 231, 189, 0, 132, 230, 0, 127, 0, 0, 129, 24, 200, 251, 182, 249, 160, 231, 189, 236, 81, 184, 61, 249, 160, 231, 189, 0, 132, 230, 0, 127, 0, 0, 129, 82, 185, 251, 182, 121, 242, 159, 189, 236, 81, 184, 61, 249, 160, 231, 189, 0, 132, 230, 0, 127, 0, 0, 129, 22, 192, 251, 182, 249, 160, 231, 61, 236, 81, 184, 61, 249, 160, 231, 189, 0, 26, 132, 0, 129, 0, 0, 127, 201, 200, 251, 182, 216, 240, 244, 61, 143, 194, 117, 61, 216, 240, 244, 189, 0, 26, 132, 0, 129, 0, 0, 127, 233, 200, 45, 58, 121, 242, 159, 61, 236, 81, 184, 61, 249, 160, 231, 189, 0, 26, 132, 0, 129, 0, 0, 127, 24, 200, 251, 182, 249, 160, 231, 189, 236, 81, 184, 61, 249, 160, 231, 61, 132, 26, 0, 0, 0, 0, 127, 127, 82, 185, 53, 193, 216, 240, 244, 189, 143, 194, 117, 61, 216, 240, 244, 189, 132, 26, 0, 0, 0, 0, 127, 127, 233, 200, 148, 189, 216, 240, 244, 189, 143, 194, 117, 61, 216, 240, 244, 61, 132, 26, 0, 0, 0, 0, 127, 127, 141, 182, 148, 189, 216, 240, 244, 189, 143, 194, 117, 61, 216, 240, 244, 189, 132, 26, 0, 0, 0, 0, 127, 127, 233, 200, 148, 189, 249, 160, 231, 189, 236, 81, 184, 61, 249, 160, 231, 61, 132, 26, 0, 0, 0, 0, 127, 127, 82, 185, 53, 193, 249, 160, 231, 189, 236, 81, 184, 61, 121, 242, 159, 61, 132, 26, 0, 0, 0, 0, 127, 127, 22, 192, 53, 193, 216, 240, 244, 189, 143, 194, 117, 61, 216, 240, 244, 189, 132, 26, 0, 0, 0, 0, 127, 127, 233, 200, 148, 189, 249, 160, 231, 189, 236, 81, 184, 61, 121, 242, 159, 61, 132, 26, 0, 0, 0, 0, 127, 127, 22, 192, 53, 193, 249, 160, 231, 189, 236, 81, 184, 61, 108, 242, 159, 189, 132, 26, 0, 0, 0, 0, 127, 127, 24, 200, 53, 193, 216, 240, 244, 189, 143, 194, 117, 61, 216, 240, 244, 189, 132, 26, 0, 0, 0, 0, 127, 127, 233, 200, 148, 189, 249, 160, 231, 189, 236, 81, 184, 61, 108, 242, 159, 189, 132, 26, 0, 0, 0, 0, 127, 127, 24, 200, 53, 193, 249, 160, 231, 189, 236, 81, 184, 61, 249, 160, 231, 189, 132, 26, 0, 0, 0, 0, 127, 127, 201, 200, 53, 193, 159, 182, 177, 61, 205, 204, 204, 62, 159, 182, 177, 189, 121, 35, 0, 0, 0, 0, 129, 127, 68, 72, 224, 201, 28, 241, 159, 61, 246, 40, 220, 62, 42, 241, 159, 61, 121, 35, 0, 0, 0, 0, 129, 127, 22, 64, 126, 202, 159, 182, 177, 61, 205, 204, 204, 62, 159, 182, 177, 61, 121, 35, 0, 0, 0, 0, 129, 127, 206, 62, 224, 201, 28, 241, 159, 61, 246, 40, 220, 62, 42, 241, 159, 61, 121, 35, 0, 0, 0, 0, 129, 127, 22, 64, 126, 202, 159, 182, 177, 61, 205, 204, 204, 62, 159, 182, 177, 189, 121, 35, 0, 0, 0, 0, 129, 127, 68, 72, 224, 201, 28, 241, 159, 61, 246, 40, 220, 62, 28, 241, 159, 189, 121, 35, 0, 0, 0, 0, 129, 127, 24, 72, 126, 202, 42, 241, 159, 189, 246, 40, 220, 62, 42, 241, 159, 61, 135, 35, 0, 0, 0, 0, 127, 127, 22, 192, 234, 203, 159, 182, 177, 189, 205, 204, 204, 62, 159, 182, 177, 189, 135, 35, 0, 0, 0, 0, 127, 127, 68, 200, 76, 203, 159, 182, 177, 189, 205, 204, 204, 62, 159, 182, 177, 61, 135, 35, 0, 0, 0, 0, 127, 127, 206, 190, 76, 203, 159, 182, 177, 189, 205, 204, 204, 62, 159, 182, 177, 189, 135, 35, 0, 0, 0, 0, 127, 127, 68, 200, 76, 203, 42, 241, 159, 189, 246, 40, 220, 62, 42, 241, 159, 61, 135, 35, 0, 0, 0, 0, 127, 127, 22, 192, 234, 203, 42, 241, 159, 189, 246, 40, 220, 62, 28, 241, 159, 189, 135, 35, 0, 0, 0, 0, 127, 127, 24, 200, 234, 203, 42, 241, 159, 189, 246, 40, 220, 62, 28, 241, 159, 189, 0, 35, 135, 0, 129, 0, 0, 127, 22, 192, 126, 202, 159, 182, 177, 61, 205, 204, 204, 62, 159, 182, 177, 189, 0, 35, 135, 0, 129, 0, 0, 127, 68, 200, 224, 201, 159, 182, 177, 189, 205, 204, 204, 62, 159, 182, 177, 189, 0, 35, 135, 0, 129, 0, 0, 127, 206, 190, 224, 201, 159, 182, 177, 61, 205, 204, 204, 62, 159, 182, 177, 189, 0, 35, 135, 0, 129, 0, 0, 127, 68, 200, 224, 201, 42, 241, 159, 189, 246, 40, 220, 62, 28, 241, 159, 189, 0, 35, 135, 0, 129, 0, 0, 127, 22, 192, 126, 202, 28, 241, 159, 61, 246, 40, 220, 62, 28, 241, 159, 189, 0, 35, 135, 0, 129, 0, 0, 127, 24, 200, 126, 202, 28, 241, 159, 61, 246, 40, 220, 62, 42, 241, 159, 61, 0, 35, 121, 0, 127, 0, 0, 127, 24, 72, 234, 203, 159, 182, 177, 189, 205, 204, 204, 62, 159, 182, 177, 61, 0, 35, 121, 0, 127, 0, 0, 127, 206, 62, 76, 203, 159, 182, 177, 61, 205, 204, 204, 62, 159, 182, 177, 61, 0, 35, 121, 0, 127, 0, 0, 127, 68, 72, 76, 203, 159, 182, 177, 189, 205, 204, 204, 62, 159, 182, 177, 61, 0, 35, 121, 0, 127, 0, 0, 127, 206, 62, 76, 203, 28, 241, 159, 61, 246, 40, 220, 62, 42, 241, 159, 61, 0, 35, 121, 0, 127, 0, 0, 127, 24, 72, 234, 203, 42, 241, 159, 189, 246, 40, 220, 62, 42, 241, 159, 61, 0, 35, 121, 0, 127, 0, 0, 127, 22, 64, 234, 203, 249, 160, 231, 189, 205, 204, 204, 62, 249, 160, 231, 61, 0, 127, 0, 0, 127, 0, 0, 127, 82, 57, 90, 53, 159, 182, 177, 189, 205, 204, 204, 62, 159, 182, 177, 61, 0, 127, 0, 0, 127, 0, 0, 127, 206, 62, 157, 185, 249, 160, 231, 189, 205, 204, 204, 62, 249, 160, 231, 189, 0, 127, 0, 0, 127, 0, 0, 127, 82, 57, 73, 200, 159, 182, 177, 189, 205, 204, 204, 62, 159, 182, 177, 61, 0, 127, 0, 0, 127, 0, 0, 127, 206, 62, 157, 185, 249, 160, 231, 189, 205, 204, 204, 62, 249, 160, 231, 61, 0, 127, 0, 0, 127, 0, 0, 127, 82, 57, 90, 53, 249, 160, 231, 61, 205, 204, 204, 62, 249, 160, 231, 61, 0, 127, 0, 0, 127, 0, 0, 127, 201, 72, 90, 53, 159, 182, 177, 61, 205, 204, 204, 62, 159, 182, 177, 61, 0, 127, 0, 0, 127, 0, 0, 127, 68, 72, 157, 185, 159, 182, 177, 61, 205, 204, 204, 62, 159, 182, 177, 61, 0, 127, 0, 0, 127, 0, 0, 127, 68, 72, 157, 185, 249, 160, 231, 61, 205, 204, 204, 62, 249, 160, 231, 61, 0, 127, 0, 0, 127, 0, 0, 127, 201, 72, 90, 53, 159, 182, 177, 61, 205, 204, 204, 62, 159, 182, 177, 189, 0, 127, 0, 0, 127, 0, 0, 127, 68, 72, 136, 199, 159, 182, 177, 189, 205, 204, 204, 62, 159, 182, 177, 189, 0, 127, 0, 0, 127, 0, 0, 127, 206, 62, 136, 199, 249, 160, 231, 189, 205, 204, 204, 62, 249, 160, 231, 189, 0, 127, 0, 0, 127, 0, 0, 127, 82, 57, 73, 200, 159, 182, 177, 189, 205, 204, 204, 62, 159, 182, 177, 61, 0, 127, 0, 0, 127, 0, 0, 127, 206, 62, 157, 185, 249, 160, 231, 189, 205, 204, 204, 62, 249, 160, 231, 189, 0, 127, 0, 0, 127, 0, 0, 127, 82, 57, 73, 200, 159, 182, 177, 189, 205, 204, 204, 62, 159, 182, 177, 189, 0, 127, 0, 0, 127, 0, 0, 127, 206, 62, 136, 199, 249, 160, 231, 61, 205, 204, 204, 62, 249, 160, 231, 189, 0, 127, 0, 0, 127, 0, 0, 127, 201, 72, 73, 200, 249, 160, 231, 61, 205, 204, 204, 62, 249, 160, 231, 189, 0, 127, 0, 0, 127, 0, 0, 127, 201, 72, 73, 200, 159, 182, 177, 189, 205, 204, 204, 62, 159, 182, 177, 189, 0, 127, 0, 0, 127, 0, 0, 127, 206, 62, 136, 199, 159, 182, 177, 61, 205, 204, 204, 62, 159, 182, 177, 189, 0, 127, 0, 0, 127, 0, 0, 127, 68, 72, 136, 199, 249, 160, 231, 61, 205, 204, 204, 62, 249, 160, 231, 189, 0, 127, 0, 0, 127, 0, 0, 127, 201, 72, 73, 200, 159, 182, 177, 61, 205, 204, 204, 62, 159, 182, 177, 189, 0, 127, 0, 0, 127, 0, 0, 127, 68, 72, 136, 199, 249, 160, 231, 61, 205, 204, 204, 62, 249, 160, 231, 61, 0, 127, 0, 0, 127, 0, 0, 127, 201, 72, 90, 53, 249, 160, 231, 61, 236, 81, 184, 61, 249, 160, 231, 61, 0, 0, 127, 0, 127, 0, 0, 127, 201, 72, 22, 193, 121, 242, 159, 61, 51, 51, 179, 62, 249, 160, 231, 61, 0, 0, 127, 0, 127, 0, 0, 127, 24, 72, 99, 202, 121, 242, 159, 61, 236, 81, 184, 61, 249, 160, 231, 61, 0, 0, 127, 0, 127, 0, 0, 127, 24, 72, 22, 193, 121, 242, 159, 61, 51, 51, 179, 62, 249, 160, 231, 61, 0, 0, 127, 0, 127, 0, 0, 127, 24, 72, 99, 202, 249, 160, 231, 61, 236, 81, 184, 61, 249, 160, 231, 61, 0, 0, 127, 0, 127, 0, 0, 127, 201, 72, 22, 193, 249, 160, 231, 61, 205, 204, 204, 62, 249, 160, 231, 61, 0, 0, 127, 0, 127, 0, 0, 127, 201, 72, 95, 203, 121, 242, 159, 189, 51, 51, 179, 62, 249, 160, 231, 61, 0, 0, 127, 0, 127, 0, 0, 127, 22, 64, 99, 202, 249, 160, 231, 189, 205, 204, 204, 62, 249, 160, 231, 61, 0, 0, 127, 0, 127, 0, 0, 127, 82, 57, 95, 203, 121, 242, 159, 189, 51, 51, 179, 62, 249, 160, 231, 61, 0, 0, 127, 0, 127, 0, 0, 127, 22, 64, 99, 202, 249, 160, 231, 61, 205, 204, 204, 62, 249, 160, 231, 61, 0, 0, 127, 0, 127, 0, 0, 127, 201, 72, 95, 203, 249, 160, 231, 189, 205, 204, 204, 62, 249, 160, 231, 61, 0, 0, 127, 0, 127, 0, 0, 127, 82, 57, 95, 203, 121, 242, 159, 189, 236, 81, 184, 61, 249, 160, 231, 61, 0, 0, 127, 0, 127, 0, 0, 127, 22, 64, 22, 193, 121, 242, 159, 189, 51, 51, 179, 62, 249, 160, 231, 61, 0, 0, 127, 0, 127, 0, 0, 127, 22, 64, 99, 202, 121, 242, 159, 189, 236, 81, 184, 61, 249, 160, 231, 61, 0, 0, 127, 0, 127, 0, 0, 127, 22, 64, 22, 193, 249, 160, 231, 189, 205, 204, 204, 62, 249, 160, 231, 61, 0, 0, 127, 0, 127, 0, 0, 127, 82, 57, 95, 203, 249, 160, 231, 189, 236, 81, 184, 61, 249, 160, 231, 61, 0, 0, 127, 0, 127, 0, 0, 127, 82, 57, 22, 193, 249, 160, 231, 61, 236, 81, 184, 61, 249, 160, 231, 189, 127, 0, 0, 0, 0, 0, 129, 127, 201, 72, 22, 193, 249, 160, 231, 61, 51, 51, 179, 62, 108, 242, 159, 189, 127, 0, 0, 0, 0, 0, 129, 127, 24, 72, 99, 202, 249, 160, 231, 61, 236, 81, 184, 61, 108, 242, 159, 189, 127, 0, 0, 0, 0, 0, 129, 127, 24, 72, 22, 193, 249, 160, 231, 61, 205, 204, 204, 62, 249, 160, 231, 189, 127, 0, 0, 0, 0, 0, 129, 127, 201, 72, 95, 203, 249, 160, 231, 61, 51, 51, 179, 62, 121, 242, 159, 61, 127, 0, 0, 0, 0, 0, 129, 127, 22, 64, 99, 202, 249, 160, 231, 61, 205, 204, 204, 62, 249, 160, 231, 61, 127, 0, 0, 0, 0, 0, 129, 127, 82, 57, 95, 203, 249, 160, 231, 61, 205, 204, 204, 62, 249, 160, 231, 61, 127, 0, 0, 0, 0, 0, 129, 127, 82, 57, 95, 203, 249, 160, 231, 61, 236, 81, 184, 61, 121, 242, 159, 61, 127, 0, 0, 0, 0, 0, 129, 127, 22, 64, 22, 193, 249, 160, 231, 61, 51, 51, 179, 62, 121, 242, 159, 61, 127, 0, 0, 0, 0, 0, 129, 127, 22, 64, 99, 202, 249, 160, 231, 61, 236, 81, 184, 61, 121, 242, 159, 61, 127, 0, 0, 0, 0, 0, 129, 127, 22, 64, 22, 193, 249, 160, 231, 61, 205, 204, 204, 62, 249, 160, 231, 61, 127, 0, 0, 0, 0, 0, 129, 127, 82, 57, 95, 203, 249, 160, 231, 61, 236, 81, 184, 61, 249, 160, 231, 61, 127, 0, 0, 0, 0, 0, 129, 127, 82, 57, 22, 193, 179, 187, 219, 60, 21, 87, 245, 62, 219, 239, 154, 60, 0, 127, 0, 0, 127, 0, 0, 127, 44, 70, 191, 194, 179, 187, 219, 188, 21, 87, 245, 62, 219, 239, 154, 188, 0, 127, 0, 0, 127, 0, 0, 127, 15, 68, 220, 196, 179, 187, 219, 188, 21, 87, 245, 62, 219, 239, 154, 60, 0, 127, 0, 0, 127, 0, 0, 127, 15, 68, 191, 194, 179, 187, 219, 60, 21, 87, 245, 62, 219, 239, 154, 188, 0, 127, 0, 0, 127, 0, 0, 127, 44, 70, 220, 196, 167, 157, 16, 189, 50, 255, 240, 62, 219, 239, 154, 188, 0, 0, 129, 0, 129, 0, 0, 127, 116, 195, 98, 204, 77, 60, 150, 188, 246, 40, 220, 62, 219, 239, 154, 188, 0, 0, 129, 0, 129, 0, 0, 127, 101, 196, 246, 203, 167, 157, 16, 189, 246, 40, 220, 62, 219, 239, 154, 188, 0, 0, 129, 0, 129, 0, 0, 127, 116, 195, 246, 203, 77, 60, 150, 188, 246, 40, 220, 62, 219, 239, 154, 188, 0, 0, 129, 0, 129, 0, 0, 127, 101, 196, 246, 203, 167, 157, 16, 189, 50, 255, 240, 62, 219, 239, 154, 188, 0, 0, 129, 0, 129, 0, 0, 127, 116, 195, 98, 204, 77, 60, 150, 188, 47, 167, 236, 62, 219, 239, 154, 188, 0, 0, 129, 0, 129, 0, 0, 127, 101, 196, 76, 204, 23, 60, 150, 60, 47, 167, 236, 62, 219, 239, 154, 188, 0, 0, 129, 0, 129, 0, 0, 127, 215, 197, 76, 204, 167, 157, 16, 61, 50, 255, 240, 62, 219, 239, 154, 188, 0, 0, 129, 0, 129, 0, 0, 127, 130, 198, 98, 204, 167, 157, 16, 61, 246, 40, 220, 62, 219, 239, 154, 188, 0, 0, 129, 0, 129, 0, 0, 127, 130, 198, 246, 203, 23, 60, 150, 60, 47, 167, 236, 62, 219, 239, 154, 188, 0, 0, 129, 0, 129, 0, 0, 127, 215, 197, 76, 204, 167, 157, 16, 61, 50, 255, 240, 62, 219, 239, 154, 188, 0, 0, 129, 0, 129, 0, 0, 127, 130, 198, 98, 204, 23, 60, 150, 60, 47, 167, 236, 62, 219, 239, 154, 188, 0, 0, 129, 0, 129, 0, 0, 127, 215, 197, 76, 204, 167, 157, 16, 61, 246, 40, 220, 62, 219, 239, 154, 188, 0, 0, 129, 0, 129, 0, 0, 127, 130, 198, 246, 203, 23, 60, 150, 60, 246, 40, 220, 62, 219, 239, 154, 188, 0, 0, 129, 0, 129, 0, 0, 127, 215, 197, 246, 203, 179, 187, 219, 188, 21, 87, 245, 62, 219, 239, 154, 188, 0, 0, 129, 0, 129, 0, 0, 127, 15, 196, 119, 204, 167, 157, 16, 61, 50, 255, 240, 62, 219, 239, 154, 188, 0, 0, 129, 0, 129, 0, 0, 127, 130, 198, 98, 204, 179, 187, 219, 188, 21, 87, 245, 62, 219, 239, 154, 188, 0, 0, 129, 0, 129, 0, 0, 127, 15, 196, 119, 204, 179, 187, 219, 60, 21, 87, 245, 62, 219, 239, 154, 188, 0, 0, 129, 0, 129, 0, 0, 127, 44, 198, 119, 204, 167, 157, 16, 189, 50, 255, 240, 62, 219, 239, 154, 188, 129, 0, 0, 0, 0, 0, 127, 127, 220, 197, 98, 204, 167, 157, 16, 189, 246, 40, 220, 62, 219, 239, 154, 60, 129, 0, 0, 0, 0, 0, 127, 127, 95, 196, 246, 203, 167, 157, 16, 189, 50, 255, 240, 62, 219, 239, 154, 60, 129, 0, 0, 0, 0, 0, 127, 127, 95, 196, 98, 204, 167, 157, 16, 189, 246, 40, 220, 62, 219, 239, 154, 60, 129, 0, 0, 0, 0, 0, 127, 127, 95, 196, 246, 203, 167, 157, 16, 189, 50, 255, 240, 62, 219, 239, 154, 188, 129, 0, 0, 0, 0, 0, 127, 127, 220, 197, 98, 204, 167, 157, 16, 189, 246, 40, 220, 62, 219, 239, 154, 188, 129, 0, 0, 0, 0, 0, 127, 127, 220, 197, 246, 203, 167, 157, 16, 61, 50, 255, 240, 62, 219, 239, 154, 60, 0, 0, 127, 0, 127, 0, 0, 127, 130, 70, 98, 204, 23, 60, 150, 60, 246, 40, 220, 62, 219, 239, 154, 60, 0, 0, 127, 0, 127, 0, 0, 127, 215, 69, 246, 203, 167, 157, 16, 61, 246, 40, 220, 62, 219, 239, 154, 60, 0, 0, 127, 0, 127, 0, 0, 127, 130, 70, 246, 203, 23, 60, 150, 60, 246, 40, 220, 62, 219, 239, 154, 60, 0, 0, 127, 0, 127, 0, 0, 127, 215, 69, 246, 203, 167, 157, 16, 61, 50, 255, 240, 62, 219, 239, 154, 60, 0, 0, 127, 0, 127, 0, 0, 127, 130, 70, 98, 204, 23, 60, 150, 60, 47, 167, 236, 62, 219, 239, 154, 60, 0, 0, 127, 0, 127, 0, 0, 127, 215, 69, 76, 204, 77, 60, 150, 188, 47, 167, 236, 62, 219, 239, 154, 60, 0, 0, 127, 0, 127, 0, 0, 127, 101, 68, 76, 204, 167, 157, 16, 189, 50, 255, 240, 62, 219, 239, 154, 60, 0, 0, 127, 0, 127, 0, 0, 127, 116, 67, 98, 204, 167, 157, 16, 189, 246, 40, 220, 62, 219, 239, 154, 60, 0, 0, 127, 0, 127, 0, 0, 127, 116, 67, 246, 203, 77, 60, 150, 188, 47, 167, 236, 62, 219, 239, 154, 60, 0, 0, 127, 0, 127, 0, 0, 127, 101, 68, 76, 204, 167, 157, 16, 189, 50, 255, 240, 62, 219, 239, 154, 60, 0, 0, 127, 0, 127, 0, 0, 127, 116, 67, 98, 204, 77, 60, 150, 188, 47, 167, 236, 62, 219, 239, 154, 60, 0, 0, 127, 0, 127, 0, 0, 127, 101, 68, 76, 204, 167, 157, 16, 189, 246, 40, 220, 62, 219, 239, 154, 60, 0, 0, 127, 0, 127, 0, 0, 127, 116, 67, 246, 203, 77, 60, 150, 188, 246, 40, 220, 62, 219, 239, 154, 60, 0, 0, 127, 0, 127, 0, 0, 127, 101, 68, 246, 203, 167, 157, 16, 189, 50, 255, 240, 62, 219, 239, 154, 60, 0, 0, 127, 0, 127, 0, 0, 127, 116, 67, 98, 204, 167, 157, 16, 61, 50, 255, 240, 62, 219, 239, 154, 60, 0, 0, 127, 0, 127, 0, 0, 127, 130, 70, 98, 204, 179, 187, 219, 60, 21, 87, 245, 62, 219, 239, 154, 60, 0, 0, 127, 0, 127, 0, 0, 127, 44, 70, 119, 204, 179, 187, 219, 60, 21, 87, 245, 62, 219, 239, 154, 60, 0, 0, 127, 0, 127, 0, 0, 127, 44, 70, 119, 204, 179, 187, 219, 188, 21, 87, 245, 62, 219, 239, 154, 60, 0, 0, 127, 0, 127, 0, 0, 127, 15, 68, 119, 204, 167, 157, 16, 61, 246, 40, 220, 62, 219, 239, 154, 188, 127, 0, 0, 0, 0, 0, 129, 127, 220, 69, 246, 203, 167, 157, 16, 61, 50, 255, 240, 62, 219, 239, 154, 60, 127, 0, 0, 0, 0, 0, 129, 127, 95, 68, 98, 204, 167, 157, 16, 61, 246, 40, 220, 62, 219, 239, 154, 60, 127, 0, 0, 0, 0, 0, 129, 127, 95, 68, 246, 203, 167, 157, 16, 61, 50, 255, 240, 62, 219, 239, 154, 60, 127, 0, 0, 0, 0, 0, 129, 127, 95, 68, 98, 204, 167, 157, 16, 61, 246, 40, 220, 62, 219, 239, 154, 188, 127, 0, 0, 0, 0, 0, 129, 127, 220, 69, 246, 203, 167, 157, 16, 61, 50, 255, 240, 62, 219, 239, 154, 188, 127, 0, 0, 0, 0, 0, 129, 127, 220, 69, 98, 204, 23, 60, 150, 60, 47, 167, 236, 62, 219, 239, 154, 188, 129, 0, 0, 0, 0, 0, 127, 127, 220, 197, 76, 204, 23, 60, 150, 60, 246, 40, 220, 62, 219, 239, 154, 60, 129, 0, 0, 0, 0, 0, 127, 127, 95, 196, 246, 203, 23, 60, 150, 60, 47, 167, 236, 62, 219, 239, 154, 60, 129, 0, 0, 0, 0, 0, 127, 127, 95, 196, 76, 204, 23, 60, 150, 60, 246, 40, 220, 62, 219, 239, 154, 188, 129, 0, 0, 0, 0, 0, 127, 127, 220, 197, 246, 203, 23, 60, 150, 60, 47, 167, 236, 62, 219, 239, 154, 188, 0, 129, 0, 0, 129, 0, 0, 127, 215, 197, 220, 196, 77, 60, 150, 188, 47, 167, 236, 62, 219, 239, 154, 60, 0, 129, 0, 0, 129, 0, 0, 127, 101, 196, 191, 194, 77, 60, 150, 188, 47, 167, 236, 62, 219, 239, 154, 188, 0, 129, 0, 0, 129, 0, 0, 127, 101, 196, 220, 196, 23, 60, 150, 60, 47, 167, 236, 62, 219, 239, 154, 60, 0, 129, 0, 0, 129, 0, 0, 127, 215, 197, 191, 194, 77, 60, 150, 188, 246, 40, 220, 62, 219, 239, 154, 188, 127, 0, 0, 0, 0, 0, 129, 127, 220, 69, 246, 203, 77, 60, 150, 188, 47, 167, 236, 62, 219, 239, 154, 60, 127, 0, 0, 0, 0, 0, 129, 127, 95, 68, 76, 204, 77, 60, 150, 188, 246, 40, 220, 62, 219, 239, 154, 60, 127, 0, 0, 0, 0, 0, 129, 127, 95, 68, 246, 203, 77, 60, 150, 188, 47, 167, 236, 62, 219, 239, 154, 188, 127, 0, 0, 0, 0, 0, 129, 127, 220, 69, 76, 204, 167, 157, 16, 61, 50, 255, 240, 62, 219, 239, 154, 60, 89, 89, 0, 0, 0, 0, 129, 127, 95, 68, 128, 199, 179, 187, 219, 60, 21, 87, 245, 62, 219, 239, 154, 188, 89, 89, 0, 0, 0, 0, 129, 127, 220, 69, 249, 199, 179, 187, 219, 60, 21, 87, 245, 62, 219, 239, 154, 60, 89, 89, 0, 0, 0, 0, 129, 127, 95, 68, 249, 199, 167, 157, 16, 61, 50, 255, 240, 62, 219, 239, 154, 188, 89, 89, 0, 0, 0, 0, 129, 127, 220, 69, 128, 199, 179, 187, 219, 188, 21, 87, 245, 62, 219, 239, 154, 188, 167, 89, 0, 0, 0, 0, 127, 127, 220, 197, 155, 203, 167, 157, 16, 189, 50, 255, 240, 62, 219, 239, 154, 60, 167, 89, 0, 0, 0, 0, 127, 127, 95, 196, 94, 203, 179, 187, 219, 188, 21, 87, 245, 62, 219, 239, 154, 60, 167, 89, 0, 0, 0, 0, 127, 127, 95, 196, 155, 203, 167, 157, 16, 189, 50, 255, 240, 62, 219, 239, 154, 60, 167, 89, 0, 0, 0, 0, 127, 127, 95, 196, 94, 203, 179, 187, 219, 188, 21, 87, 245, 62, 219, 239, 154, 188, 167, 89, 0, 0, 0, 0, 127, 127, 220, 197, 155, 203, 167, 157, 16, 189, 50, 255, 240, 62, 219, 239, 154, 188, 167, 89, 0, 0, 0, 0, 127, 127, 220, 197, 94, 203 ),
"array_index_data": PoolByteArray( 0, 0, 2, 0, 1, 0, 1, 0, 3, 0, 0, 0, 2, 0, 0, 0, 4, 0, 4, 0, 5, 0, 2, 0, 6, 0, 8, 0, 7, 0, 7, 0, 9, 0, 6, 0, 10, 0, 7, 0, 8, 0, 8, 0, 11, 0, 10, 0, 12, 0, 14, 0, 13, 0, 13, 0, 15, 0, 12, 0, 15, 0, 13, 0, 16, 0, 16, 0, 17, 0, 15, 0, 18, 0, 20, 0, 19, 0, 19, 0, 21, 0, 18, 0, 21, 0, 19, 0, 22, 0, 22, 0, 23, 0, 21, 0, 23, 0, 24, 0, 21, 0, 25, 0, 27, 0, 26, 0, 28, 0, 30, 0, 29, 0, 29, 0, 31, 0, 28, 0, 32, 0, 34, 0, 33, 0, 32, 0, 35, 0, 34, 0, 36, 0, 38, 0, 37, 0, 37, 0, 39, 0, 36, 0, 40, 0, 42, 0, 41, 0, 41, 0, 43, 0, 40, 0, 44, 0, 23, 0, 22, 0, 22, 0, 45, 0, 44, 0, 46, 0, 44, 0, 45, 0, 45, 0, 47, 0, 46, 0, 48, 0, 50, 0, 49, 0, 49, 0, 51, 0, 48, 0, 52, 0, 49, 0, 50, 0, 50, 0, 53, 0, 52, 0, 54, 0, 56, 0, 55, 0, 57, 0, 59, 0, 58, 0, 60, 0, 62, 0, 61, 0, 63, 0, 65, 0, 64, 0, 66, 0, 68, 0, 67, 0, 69, 0, 70, 0, 59, 0, 71, 0, 73, 0, 72, 0, 74, 0, 76, 0, 75, 0, 77, 0, 79, 0, 78, 0, 80, 0, 82, 0, 81, 0, 83, 0, 85, 0, 84, 0, 86, 0, 88, 0, 87, 0, 89, 0, 67, 0, 68, 0, 80, 0, 91, 0, 90, 0, 92, 0, 94, 0, 93, 0, 93, 0, 95, 0, 92, 0, 96, 0, 98, 0, 97, 0, 99, 0, 101, 0, 100, 0, 102, 0, 104, 0, 103, 0, 103, 0, 105, 0, 102, 0, 105, 0, 103, 0, 106, 0, 106, 0, 107, 0, 105, 0, 108, 0, 110, 0, 109, 0, 108, 0, 111, 0, 110, 0, 112, 0, 114, 0, 113, 0, 113, 0, 115, 0, 112, 0, 116, 0, 118, 0, 117, 0, 117, 0, 119, 0, 116, 0, 120, 0, 104, 0, 102, 0, 102, 0, 121, 0, 120, 0, 122, 0, 120, 0, 121, 0, 121, 0, 123, 0, 122, 0, 124, 0, 126, 0, 125, 0, 125, 0, 127, 0, 124, 0, 128, 0, 130, 0, 129, 0, 129, 0, 131, 0, 128, 0, 132, 0, 134, 0, 133, 0, 133, 0, 135, 0, 132, 0, 136, 0, 138, 0, 137, 0, 137, 0, 139, 0, 136, 0, 140, 0, 142, 0, 141, 0, 143, 0, 145, 0, 144, 0, 146, 0, 148, 0, 147, 0, 148, 0, 149, 0, 147, 0, 149, 0, 150, 0, 147, 0, 151, 0, 153, 0, 152, 0, 154, 0, 156, 0, 155, 0, 157, 0, 159, 0, 158, 0, 160, 0, 162, 0, 161, 0, 163, 0, 165, 0, 164, 0, 166, 0, 168, 0, 167, 0, 169, 0, 171, 0, 170, 0, 172, 0, 174, 0, 173, 0, 173, 0, 175, 0, 172, 0, 176, 0, 172, 0, 175, 0, 177, 0, 179, 0, 178, 0, 180, 0, 182, 0, 181, 0, 181, 0, 183, 0, 180, 0, 182, 0, 180, 0, 184, 0, 184, 0, 185, 0, 182, 0, 186, 0, 188, 0, 187, 0, 187, 0, 189, 0, 186, 0, 190, 0, 192, 0, 191, 0, 189, 0, 194, 0, 193, 0, 195, 0, 197, 0, 196, 0, 196, 0, 198, 0, 195, 0, 197, 0, 195, 0, 199, 0, 199, 0, 200, 0, 197, 0, 201, 0, 203, 0, 202, 0, 204, 0, 206, 0, 205, 0, 207, 0, 209, 0, 208, 0, 210, 0, 212, 0, 211, 0, 213, 0, 215, 0, 214, 0, 216, 0, 218, 0, 217, 0, 219, 0, 221, 0, 220, 0, 222, 0, 224, 0, 223, 0, 225, 0, 227, 0, 226, 0, 228, 0, 230, 0, 229, 0, 231, 0, 233, 0, 232, 0, 234, 0, 236, 0, 235, 0, 237, 0, 239, 0, 238, 0, 240, 0, 242, 0, 241, 0, 243, 0, 245, 0, 244, 0, 246, 0, 248, 0, 247, 0, 249, 0, 251, 0, 250, 0, 252, 0, 254, 0, 253, 0, 255, 0, 1, 1, 0, 1, 2, 1, 4, 1, 3, 1, 5, 1, 7, 1, 6, 1, 8, 1, 10, 1, 9, 1, 11, 1, 13, 1, 12, 1, 14, 1, 16, 1, 15, 1, 17, 1, 19, 1, 18, 1, 20, 1, 22, 1, 21, 1, 20, 1, 23, 1, 22, 1, 24, 1, 26, 1, 25, 1, 27, 1, 29, 1, 28, 1, 30, 1, 32, 1, 31, 1, 33, 1, 35, 1, 34, 1, 36, 1, 38, 1, 37, 1, 39, 1, 41, 1, 40, 1, 42, 1, 44, 1, 43, 1, 42, 1, 45, 1, 44, 1, 46, 1, 48, 1, 47, 1, 49, 1, 51, 1, 50, 1, 52, 1, 54, 1, 53, 1, 55, 1, 57, 1, 56, 1, 58, 1, 55, 1, 56, 1, 58, 1, 56, 1, 59, 1, 60, 1, 58, 1, 59, 1, 61, 1, 63, 1, 62, 1, 64, 1, 66, 1, 65, 1, 67, 1, 69, 1, 68, 1, 68, 1, 70, 1, 67, 1, 71, 1, 73, 1, 72, 1, 74, 1, 76, 1, 75, 1, 76, 1, 77, 1, 75, 1, 78, 1, 75, 1, 77, 1, 79, 1, 81, 1, 80, 1, 82, 1, 84, 1, 83, 1, 78, 1, 85, 1, 75, 1, 86, 1, 88, 1, 87, 1, 89, 1, 91, 1, 90, 1, 92, 1, 94, 1, 93, 1, 95, 1, 97, 1, 96, 1, 98, 1, 100, 1, 99, 1, 100, 1, 101, 1, 99, 1, 102, 1, 99, 1, 101, 1, 103, 1, 105, 1, 104, 1, 106, 1, 108, 1, 107, 1, 109, 1, 111, 1, 110, 1, 102, 1, 113, 1, 112, 1, 114, 1, 116, 1, 115, 1, 117, 1, 119, 1, 118, 1, 120, 1, 122, 1, 121, 1, 121, 1, 123, 1, 120, 1, 124, 1, 126, 1, 125, 1, 125, 1, 127, 1, 124, 1, 128, 1, 130, 1, 129, 1, 129, 1, 131, 1, 128, 1, 132, 1, 134, 1, 133, 1, 133, 1, 135, 1, 132, 1, 136, 1, 138, 1, 137, 1, 139, 1, 141, 1, 140, 1 ),
"blend_shape_data": [  ],
"format": 97559,
"index_count": 534,
"material": SubResource( 2 ),
"primitive": 4,
"skeleton_aabb": [  ],
"vertex_count": 398
}
surfaces/1 = {
"aabb": AABB( -0.0955996, 0.09, -0.0955995, 0.191199, 0.26001, 0.191209 ),
"array_data": PoolByteArray( 121, 242, 159, 61, 51, 51, 179, 62, 185, 201, 195, 61, 0, 0, 127, 0, 127, 0, 0, 127, 24, 72, 99, 202, 121, 242, 159, 189, 236, 81, 184, 61, 185, 201, 195, 61, 0, 0, 127, 0, 127, 0, 0, 127, 22, 64, 22, 193, 121, 242, 159, 61, 236, 81, 184, 61, 185, 201, 195, 61, 0, 0, 127, 0, 127, 0, 0, 127, 24, 72, 22, 193, 121, 242, 159, 189, 236, 81, 184, 61, 185, 201, 195, 61, 0, 0, 127, 0, 127, 0, 0, 127, 22, 64, 22, 193, 121, 242, 159, 61, 51, 51, 179, 62, 185, 201, 195, 61, 0, 0, 127, 0, 127, 0, 0, 127, 24, 72, 99, 202, 121, 242, 159, 189, 51, 51, 179, 62, 185, 201, 195, 61, 0, 0, 127, 0, 127, 0, 0, 127, 22, 64, 99, 202, 185, 201, 195, 189, 51, 51, 179, 62, 108, 242, 159, 189, 129, 0, 0, 0, 0, 0, 127, 127, 24, 200, 99, 202, 185, 201, 195, 189, 236, 81, 184, 61, 121, 242, 159, 61, 129, 0, 0, 0, 0, 0, 127, 127, 22, 192, 22, 193, 185, 201, 195, 189, 51, 51, 179, 62, 121, 242, 159, 61, 129, 0, 0, 0, 0, 0, 127, 127, 22, 192, 99, 202, 185, 201, 195, 189, 236, 81, 184, 61, 108, 242, 159, 189, 129, 0, 0, 0, 0, 0, 127, 127, 24, 200, 22, 193, 185, 201, 195, 61, 236, 81, 184, 61, 108, 242, 159, 189, 127, 0, 0, 0, 0, 0, 129, 127, 24, 72, 22, 193, 185, 201, 195, 61, 51, 51, 179, 62, 121, 242, 159, 61, 127, 0, 0, 0, 0, 0, 129, 127, 22, 64, 99, 202, 185, 201, 195, 61, 236, 81, 184, 61, 121, 242, 159, 61, 127, 0, 0, 0, 0, 0, 129, 127, 22, 64, 22, 193, 185, 201, 195, 61, 51, 51, 179, 62, 108, 242, 159, 189, 127, 0, 0, 0, 0, 0, 129, 127, 24, 72, 99, 202, 121, 242, 159, 189, 236, 81, 184, 61, 172, 201, 195, 189, 0, 0, 129, 0, 129, 0, 0, 127, 22, 192, 22, 193, 121, 242, 159, 61, 51, 51, 179, 62, 172, 201, 195, 189, 0, 0, 129, 0, 129, 0, 0, 127, 24, 200, 99, 202, 121, 242, 159, 61, 236, 81, 184, 61, 172, 201, 195, 189, 0, 0, 129, 0, 129, 0, 0, 127, 24, 200, 22, 193, 121, 242, 159, 189, 51, 51, 179, 62, 172, 201, 195, 189, 0, 0, 129, 0, 129, 0, 0, 127, 22, 192, 99, 202 ),
"array_index_data": PoolByteArray( 0, 0, 2, 0, 1, 0, 3, 0, 5, 0, 4, 0, 6, 0, 8, 0, 7, 0, 7, 0, 9, 0, 6, 0, 10, 0, 12, 0, 11, 0, 11, 0, 13, 0, 10, 0, 14, 0, 16, 0, 15, 0, 15, 0, 17, 0, 14, 0 ),
"blend_shape_data": [  ],
"format": 97559,
"index_count": 24,
"material": SubResource( 4 ),
"primitive": 4,
"skeleton_aabb": [  ],
"vertex_count": 18
}
