[gd_scene load_steps=2 format=2]

[ext_resource path="res://src/camera.gd" type="Script" id=1]

[node name="Camera" type="Camera"]
transform = Transform( 1, 0, 0, 0, 0.707107, 0.707107, 0, -0.707107, 0.707107, 0, 5, 5 )
current = true
script = ExtResource( 1 )
targetNode = NodePath("../Player")
